test,rad,sortdeg1.lsR
1138_bus.mtx,1,5
130bit.mtx,1,14
685_bus.mtx,1,6
abb313.mtx,1,8
add20.mtx,1,36
add32.mtx,1,5
adder_dcop_01.mtx,1,7
adder_dcop_02.mtx,1,7
adder_dcop_03.mtx,1,7
adder_dcop_04.mtx,1,7
adder_dcop_05.mtx,1,7
adder_dcop_06.mtx,1,7
adder_dcop_07.mtx,1,7
adder_dcop_08.mtx,1,7
adder_dcop_09.mtx,1,7
adder_dcop_10.mtx,1,7
adder_dcop_11.mtx,1,7
adder_dcop_12.mtx,1,7
adder_dcop_13.mtx,1,7
adder_dcop_14.mtx,1,7
adder_dcop_15.mtx,1,7
adder_dcop_16.mtx,1,7
adder_dcop_17.mtx,1,7
adder_dcop_18.mtx,1,7
adder_dcop_19.mtx,1,7
adder_dcop_20.mtx,1,7
adder_dcop_21.mtx,1,7
adder_dcop_22.mtx,1,7
adder_dcop_23.mtx,1,7
adder_dcop_24.mtx,1,7
adder_dcop_25.mtx,1,7
adder_dcop_26.mtx,1,7
adder_dcop_27.mtx,1,7
adder_dcop_28.mtx,1,7
adder_dcop_29.mtx,1,7
adder_dcop_30.mtx,1,7
adder_dcop_31.mtx,1,7
adder_dcop_32.mtx,1,7
adder_dcop_33.mtx,1,7
adder_dcop_34.mtx,1,7
adder_dcop_35.mtx,1,7
adder_dcop_36.mtx,1,7
adder_dcop_37.mtx,1,7
adder_dcop_38.mtx,1,7
adder_dcop_39.mtx,1,7
adder_dcop_40.mtx,1,7
adder_dcop_41.mtx,1,7
adder_dcop_42.mtx,1,7
adder_dcop_43.mtx,1,7
adder_dcop_44.mtx,1,7
adder_dcop_45.mtx,1,7
adder_dcop_46.mtx,1,7
adder_dcop_47.mtx,1,7
adder_dcop_48.mtx,1,7
adder_dcop_49.mtx,1,7
adder_dcop_50.mtx,1,7
adder_dcop_51.mtx,1,7
adder_dcop_52.mtx,1,7
adder_dcop_53.mtx,1,7
adder_dcop_54.mtx,1,7
adder_dcop_55.mtx,1,7
adder_dcop_56.mtx,1,7
adder_dcop_57.mtx,1,7
adder_dcop_58.mtx,1,7
adder_dcop_59.mtx,1,7
adder_dcop_60.mtx,1,7
adder_dcop_61.mtx,1,7
adder_dcop_62.mtx,1,7
adder_dcop_63.mtx,1,7
adder_dcop_64.mtx,1,7
adder_dcop_65.mtx,1,7
adder_dcop_66.mtx,1,7
adder_dcop_67.mtx,1,7
adder_dcop_68.mtx,1,7
adder_dcop_69.mtx,1,7
adder_trans_01.mtx,1,7
adder_trans_02.mtx,1,7
arenas-jazz.edges,1,30
arenas-meta.edges,1,11
ash608.mtx,1,3
ash958.mtx,1,4
b2_ss.mtx,1,7
bcspwr06.mtx,1,4
bcspwr07.mtx,1,4
bcspwr08.mtx,1,4
bcspwr09.mtx,1,4
bcspwr10.mtx,1,5
bcsstk02.mtx,1,66
bcsstk04.mtx,1,22
bcsstk05.mtx,1,14
bcsstk06.mtx,1,15
bcsstk07.mtx,1,15
bcsstk08.mtx,1,9
bcsstk09.mtx,1,14
bcsstk19.mtx,1,9
bcsstk20.mtx,1,7
bcsstm07.mtx,1,14
bcsstm12.mtx,1,14
bcsstm13.mtx,1,26
bcsstm35.mtx,1,6
bcsstm38.mtx,1,15
b_dyn.mtx,1,7
bfwa398.mtx,1,7
bfwa782.mtx,1,7
bfwb398.mtx,1,5
bfwb782.mtx,1,6
bibd_11_5.mtx,1,13
bibd_12_4.mtx,1,8
bibd_12_5.mtx,1,13
bibd_15_3.mtx,1,5
bibd_17_3.mtx,1,5
bibd_9_5.mtx,1,13
blckhole.mtx,1,7
bp_0.mtx,1,9
bp_1000.mtx,1,10
bp_1200.mtx,1,10
bp_1400.mtx,1,11
bp_1600.mtx,1,11
bp_200.mtx,1,9
bp_400.mtx,1,9
bp_600.mtx,1,9
bp_800.mtx,1,10
bwm2000.mtx,1,3
c-18.mtx,1,17
c-19.mtx,1,19
c-20.mtx,1,12
ca-CSphd.mtx,1,3
ca-Erdos992.mtx,1,8
cage7.mtx,1,8
cage8.mtx,1,11
cage.mtx,1,15
can_1054.mtx,1,9
can_1072.mtx,1,9
can_256.mtx,1,8
can_268.mtx,1,9
can_292.mtx,1,7
can_445.mtx,1,7
can_634.mtx,1,9
can_715.mtx,1,9
can_838.mtx,1,8
cat_ears_2_4.mtx,1,5
cavity01.mtx,1,19
cavity02.mtx,1,19
cavity03.mtx,1,19
cavity04.mtx,1,19
cavity15.mtx,1,17
cdde1.mtx,1,4
cdde2.mtx,1,4
cdde3.mtx,1,4
cdde4.mtx,1,4
cdde5.mtx,1,4
cdde6.mtx,1,4
celegans_metabolic.mtx,1,11
celegansneural.mtx,1,12
cep1.mtx,1,3
ch5-5-b2.mtx,1,5
ch5-5-b3.mtx,1,8
ch6-6-b2.mtx,1,5
ch6-6-b5.mtx,1,3
ch7-6-b1.mtx,1,3
ch7-7-b1.mtx,1,3
ch7-8-b1.mtx,1,3
ch7-9-b1.mtx,1,3
ch8-8-b1.mtx,1,3
Chebyshev1.mtx,1,9
Chem97ZtZ.mtx,1,2
circuit204.mtx,1,8
circuit_2.mtx,1,20
cis-n4c6-b2.mtx,1,4
Cities.mtx,1,31
ck400.mtx,1,9
ck656.mtx,1,9
cr42.mtx,1,9
cryg2500.mtx,1,4
CSphd.mtx,1,3
D_10.mtx,1,14
D_11.mtx,1,11
D_5.mtx,1,8
D_6.mtx,1,12
de063155.mtx,1,7
de063157.mtx,1,7
de080285.mtx,1,6
delaunay_n10.mtx,1,6
delaunay_n11.mtx,1,6
diag.mtx,1,4
DK01R.mtx,1,17
dw1024.mtx,1,5
dw2048.mtx,1,5
dw256A.mtx,1,5
dw256B.mtx,1,5
dwa512.mtx,1,5
dwg961a.mtx,1,3
dwg961b.mtx,1,8
dwt_1005.mtx,1,10
dwt_1007.mtx,1,6
dwt_1242.mtx,1,8
dwt_193.mtx,1,12
dwt_307.mtx,1,6
dwt_310.mtx,1,6
dwt_346.mtx,1,8
dwt_361.mtx,1,6
dwt_419.mtx,1,7
dwt_492.mtx,1,6
dwt_503.mtx,1,11
dwt_512.mtx,1,8
dwt_592.mtx,1,7
dwt_607.mtx,1,7
dwt_758.mtx,1,6
dwt_869.mtx,1,7
dwt_878.mtx,1,7
dwt_918.mtx,1,7
dwt_992.mtx,1,15
ego-facebook.edges,1,4
email.mtx,1,12
EPA.mtx,1,7
epb0.mtx,1,5
Erdos02.mtx,1,8
Erdos971.mtx,1,10
Erdos972.mtx,1,8
Erdos981.mtx,1,10
Erdos982.mtx,1,8
Erdos991.mtx,1,10
Erdos992.mtx,1,8
eris1176.mtx,1,80
EVA.mtx,1,4
EX1.mtx,1,15
ex21.mtx,1,20
EX2.mtx,1,13
ex32.mtx,1,9
filter2D.mtx,1,6
flower_7_1.mtx,1,5
flower_8_1.mtx,1,5
foodweb-baydry.edges,1,25
foodweb-baywet.edges,1,24
fpga_dcop_01.mtx,1,4
fpga_dcop_02.mtx,1,4
fpga_dcop_03.mtx,1,4
fpga_dcop_04.mtx,1,4
fpga_dcop_05.mtx,1,4
fpga_dcop_06.mtx,1,4
fpga_dcop_07.mtx,1,4
fpga_dcop_08.mtx,1,4
fpga_dcop_09.mtx,1,4
fpga_dcop_10.mtx,1,4
fpga_dcop_11.mtx,1,4
fpga_dcop_12.mtx,1,4
fpga_dcop_13.mtx,1,4
fpga_dcop_14.mtx,1,4
fpga_dcop_15.mtx,1,4
fpga_dcop_16.mtx,1,4
fpga_dcop_17.mtx,1,4
fpga_dcop_18.mtx,1,4
fpga_dcop_19.mtx,1,4
fpga_dcop_20.mtx,1,4
fpga_dcop_21.mtx,1,4
fpga_dcop_22.mtx,1,4
fpga_dcop_23.mtx,1,4
fpga_dcop_24.mtx,1,4
fpga_dcop_25.mtx,1,4
fpga_dcop_26.mtx,1,4
fpga_dcop_27.mtx,1,4
fpga_dcop_28.mtx,1,4
fpga_dcop_29.mtx,1,4
fpga_dcop_30.mtx,1,4
fpga_dcop_31.mtx,1,4
fpga_dcop_32.mtx,1,4
fpga_dcop_33.mtx,1,4
fpga_dcop_34.mtx,1,4
fpga_dcop_35.mtx,1,4
fpga_dcop_36.mtx,1,4
fpga_dcop_37.mtx,1,4
fpga_dcop_38.mtx,1,4
fpga_dcop_39.mtx,1,4
fpga_dcop_40.mtx,1,4
fpga_dcop_41.mtx,1,4
fpga_dcop_42.mtx,1,4
fpga_dcop_43.mtx,1,4
fpga_dcop_44.mtx,1,4
fpga_dcop_45.mtx,1,4
fpga_dcop_46.mtx,1,4
fpga_dcop_47.mtx,1,4
fpga_dcop_48.mtx,1,4
fpga_dcop_49.mtx,1,4
fpga_dcop_50.mtx,1,4
fpga_dcop_51.mtx,1,4
fpga_trans_01.mtx,1,5
fpga_trans_02.mtx,1,5
Franz1.mtx,1,5
fs_541_1.mtx,1,7
fs_541_2.mtx,1,7
fs_541_3.mtx,1,7
fs_541_4.mtx,1,7
fs_680_1.mtx,1,5
fs_680_2.mtx,1,5
fs_680_3.mtx,1,5
fs_760_1.mtx,1,8
fs_760_2.mtx,1,8
fs_760_3.mtx,1,8
G11.mtx,1,5
G12.mtx,1,5
G13.mtx,1,5
G14.mtx,1,8
G15.mtx,1,8
G16.mtx,1,8
G17.mtx,1,8
G18.mtx,1,8
G19.mtx,1,8
G20.mtx,1,8
G21.mtx,1,8
G32.mtx,1,5
G33.mtx,1,5
G34.mtx,1,5
G43.mtx,1,15
G44.mtx,1,15
G45.mtx,1,15
G46.mtx,1,15
G47.mtx,1,16
G48.mtx,1,5
G49.mtx,1,5
G50.mtx,1,5
G51.mtx,1,8
G52.mtx,1,8
G53.mtx,1,8
G54.mtx,1,8
G57.mtx,1,5
gams60am.mtx,1,4
gas11.mtx,1,6
GD00_c.mtx,1,5
GD06_Java.mtx,1,13
GD96_a.mtx,1,4
GL6_D_10.mtx,1,9
GL6_D_6.mtx,1,10
GL6_D_7.mtx,1,14
GL6_D_8.mtx,1,15
GL6_D_9.mtx,1,12
GL7d11.mtx,1,5
GL7d26.mtx,1,5
gr_30_30.mtx,1,6
gre_1107.mtx,1,7
gre_343.mtx,1,5
gre_512.mtx,1,5
grid2_dual.mtx,1,5
grid2.mtx,1,5
Harvard500.mtx,1,21
hor_131.mtx,1,16
IG5-8.mtx,1,10
IG5-9.mtx,1,13
iiasa.mtx,1,4
illc1033.mtx,1,7
illc1850.mtx,1,8
impcol_d.mtx,1,5
impcol_e.mtx,1,14
init_adder1.mtx,1,7
iprob.mtx,1,2
jagmesh1.mtx,1,5
jagmesh2.mtx,1,7
jagmesh3.mtx,1,7
jagmesh4.mtx,1,5
jagmesh5.mtx,1,5
jagmesh6.mtx,1,7
jagmesh7.mtx,1,5
jagmesh8.mtx,1,5
jagmesh9.mtx,1,7
jazz.mtx,1,30
Journals.mtx,1,76
jpwh_991.mtx,1,5
kneser_6_2_1.mtx,1,5
l9.mtx,1,7
laser.mtx,1,3
L.mtx,1,4
lns_511.mtx,1,6
lnsp_511.mtx,1,6
lp_agg2.mtx,1,15
lp_agg3.mtx,1,15
lp_agg.mtx,1,9
lp_bandm.mtx,1,13
lp_beaconfd.mtx,1,22
lp_bnl1.mtx,1,7
lp_bore3d.mtx,1,12
lp_brandy.mtx,1,21
lp_capri.mtx,1,14
lp_degen2.mtx,1,13
lp_e226.mtx,1,15
lp_etamacro.mtx,1,7
lp_fffff800.mtx,1,26
lp_finnis.mtx,1,9
lp_fit1p.mtx,1,18
lp_ganges.mtx,1,14
lp_gfrd_pnc.mtx,1,4
lp_grow15.mtx,1,18
lp_grow22.mtx,1,20
lp_grow7.mtx,1,18
lpi_bgdbg1.mtx,1,6
lpi_bgetam.mtx,1,7
lpi_chemcom.mtx,1,5
lpi_cplex2.mtx,1,5
lpi_klein2.mtx,1,18
lpi_mondou2.mtx,1,4
lpi_pang.mtx,1,14
lpi_pilot4i.mtx,1,21
lpi_qual.mtx,1,9
lpi_reactor.mtx,1,10
lpi_refinery.mtx,1,9
lp_israel.mtx,1,26
lpi_vol1.mtx,1,9
lp_ken_07.mtx,1,4
lp_lotfi.mtx,1,6
lp_modszk1.mtx,1,5
lp_nug05.mtx,1,8
lp_nug06.mtx,1,8
lp_nug07.mtx,1,8
lp_nug08.mtx,1,7
lp_perold.mtx,1,12
lp_pilot4.mtx,1,21
lp_pilot_we.mtx,1,9
lp_qap8.mtx,1,8
lp_scagr25.mtx,1,5
lp_scfxm1.mtx,1,16
lp_scfxm2.mtx,1,16
lp_scfxm3.mtx,1,16
lp_scorpion.mtx,1,7
lp_scrs8.mtx,1,5
lp_scsd1.mtx,1,5
lp_scsd6.mtx,1,5
lp_scsd8.mtx,1,5
lp_sctap1.mtx,1,6
lp_sctap2.mtx,1,5
lp_sctap3.mtx,1,5
lp_share1b.mtx,1,10
lp_shell.mtx,1,4
lp_ship04l.mtx,1,5
lp_ship04s.mtx,1,5
lp_ship08s.mtx,1,6
lp_ship12s.mtx,1,6
lp_sierra.mtx,1,5
lp_stair.mtx,1,18
lp_standata.mtx,1,5
lp_standgub.mtx,1,5
lp_standmps.mtx,1,5
lp_stocfor2.mtx,1,8
lp_tuff.mtx,1,14
lp_vtp_base.mtx,1,6
lshp1009.mtx,1,7
lshp1270.mtx,1,7
lshp1561.mtx,1,7
lshp1882.mtx,1,7
lshp2233.mtx,1,7
lshp2614.mtx,1,7
lshp3025.mtx,1,7
lshp_406.mtx,1,5
lshp_577.mtx,1,7
lshp_778.mtx,1,7
lund_a.mtx,1,12
lund_b.mtx,1,12
lung1.mtx,1,6
M20PI_n1.mtx,1,3
M20PI_n.mtx,1,3
M40PI_n1.mtx,1,3
M40PI_n.mtx,1,3
M80PI_n1.mtx,1,3
M80PI_n.mtx,1,3
maayan-faa.edges,1,6
maayan-figeys.edges,1,11
maayan-foodweb.edges,1,25
maayan-Stelzl.edges,1,9
maayan-vidal.edges,1,7
mahindas.mtx,1,41
Maragal_2.mtx,1,21
mcca.mtx,1,34
mhd3200b.mtx,1,6
mhda416.mtx,1,19
minnesota.mtx,1,3
mk10-b1.mtx,1,3
mk10-b2.mtx,1,5
mk10-b4.mtx,1,3
mk11-b1.mtx,1,3
mk12-b1.mtx,1,3
mk9-b2.mtx,1,5
mk9-b3.mtx,1,6
model1.mtx,1,11
model2.mtx,1,12
moreno_mac.edges,1,30
moreno_names.edges,1,16
moreno_oz.edges,1,13
moreno_propro.edges,1,6
n2c6-b2.mtx,1,4
n2c6-b3.mtx,1,6
n2c6-b9.mtx,1,5
n3c5-b4.mtx,1,8
n3c5-b5.mtx,1,8
n3c6-b10.mtx,1,6
n3c6-b2.mtx,1,4
n3c6-b3.mtx,1,6
n4c5-b10.mtx,1,5
n4c5-b2.mtx,1,4
n4c5-b3.mtx,1,6
n4c5-b9.mtx,1,6
n4c6-b2.mtx,1,4
nemsafm.mtx,1,4
nemscem.mtx,1,5
netscience.mtx,1,20
netz4504_dual.mtx,1,4
netz4504.mtx,1,3
nnc1374.mtx,1,7
nnc666.mtx,1,7
nos2.mtx,1,4
nos3.mtx,1,14
nos5.mtx,1,8
nos6.mtx,1,4
nos7.mtx,1,4
NotreDame_yeast.mtx,1,6
nsic.mtx,1,12
olm1000.mtx,1,4
olm2000.mtx,1,4
olm5000.mtx,1,4
opsahl-powergrid.edges,1,6
opsahl-ucforum.edges,1,16
orsirr_1.mtx,1,6
orsirr_2.mtx,1,6
orsreg_1.mtx,1,4
p0201.mtx,1,11
p0282.mtx,1,19
p0291.mtx,1,21
p0548.mtx,1,4
p2756.mtx,1,5
pde2961.mtx,1,4
pde900.mtx,1,4
Pd.mtx,1,5
Pd_rhs.mtx,1,9
plat362.mtx,1,12
plsk1919.mtx,1,5
poisson2D.mtx,1,6
poli.mtx,1,6
pores_2.mtx,1,8
pores_3.mtx,1,6
power.mtx,1,6
problem1.mtx,1,6
progas.mtx,1,8
qh1484.mtx,1,5
qh768.mtx,1,6
qh882.mtx,1,6
qiulp.mtx,1,4
QRpivot.mtx,1,9
radoslaw_email.edges,1,38
rail_1357.mtx,1,5
rajat02.mtx,1,5
rajat04.mtx,1,7
rajat12.mtx,1,10
rajat19.mtx,1,6
rdb1250l.mtx,1,5
rdb1250.mtx,1,5
rdb2048.mtx,1,5
rdb2048_noL.mtx,1,5
rdb3200l.mtx,1,5
rdb450l.mtx,1,4
rdb450.mtx,1,4
rdb800l.mtx,1,5
rdb968.mtx,1,5
rel6.mtx,1,6
relat5.mtx,1,6
relat6.mtx,1,6
Roget.mtx,1,7
rosen7.mtx,1,15
rotor2.mtx,1,21
rw496.mtx,1,6
S20PI_n1.mtx,1,3
S20PI_n.mtx,1,3
S40PI_n1.mtx,1,3
S40PI_n.mtx,1,3
S80PI_n1.mtx,1,3
S80PI_n.mtx,1,3
saylr3.mtx,1,4
saylr4.mtx,1,5
scagr7-2c.mtx,1,7
scrs8-2b.mtx,1,5
scrs8-2c.mtx,1,5
sherman1.mtx,1,4
sherman3.mtx,1,4
sherman4.mtx,1,4
shl_0.mtx,1,5
shl_200.mtx,1,5
shl_400.mtx,1,5
Si2.mtx,1,42
Sieber.mtx,1,6
SmaGri.mtx,1,12
small.mtx,1,6
sociopatterns-hypertext.edges,1,29
sociopatterns-infectious.edges,1,18
spiral.mtx,1,25
sstmodel.mtx,1,8
steam1.mtx,1,12
steam2.mtx,1,20
str_0.mtx,1,17
str_200.mtx,1,18
str_400.mtx,1,19
str_600.mtx,1,19
stufe.mtx,1,4
subelj_euroroad.edges,1,3
swang1.mtx,1,5
swang2.mtx,1,5
TF11.mtx,1,11
TF12.mtx,1,11
tols1090.mtx,1,19
tols2000.mtx,1,19
tols340.mtx,1,19
tols4000.mtx,1,19
tols90.mtx,1,19
Trec10.mtx,1,38
Trec9.mtx,1,22
Trefethen_200b.mtx,1,10
Trefethen_200.mtx,1,10
Trefethen_300.mtx,1,13
Trefethen_500.mtx,1,14
Trefethen_700.mtx,1,16
tub1000.mtx,1,4
ukerbe1_dual.mtx,1,4
ukerbe1.mtx,1,3
uk.mtx,1,3
USAir97.mtx,1,27
USpowerGrid.mtx,1,6
utm300.mtx,1,15
wang1.mtx,1,5
wang2.mtx,1,5
watt_1.mtx,1,5
watt_2.mtx,1,5
1138_bus.mtx,2,7
130bit.mtx,2,75
685_bus.mtx,2,9
abb313.mtx,2,32
add20.mtx,2,49
add32.mtx,2,12
adder_dcop_01.mtx,2,13
adder_dcop_02.mtx,2,13
adder_dcop_03.mtx,2,13
adder_dcop_04.mtx,2,12
adder_dcop_05.mtx,2,13
adder_dcop_06.mtx,2,13
adder_dcop_07.mtx,2,13
adder_dcop_08.mtx,2,13
adder_dcop_09.mtx,2,13
adder_dcop_10.mtx,2,13
adder_dcop_11.mtx,2,13
adder_dcop_12.mtx,2,13
adder_dcop_13.mtx,2,13
adder_dcop_14.mtx,2,13
adder_dcop_15.mtx,2,13
adder_dcop_16.mtx,2,13
adder_dcop_17.mtx,2,13
adder_dcop_18.mtx,2,13
adder_dcop_19.mtx,2,13
adder_dcop_20.mtx,2,13
adder_dcop_21.mtx,2,13
adder_dcop_22.mtx,2,13
adder_dcop_23.mtx,2,13
adder_dcop_24.mtx,2,13
adder_dcop_25.mtx,2,13
adder_dcop_26.mtx,2,13
adder_dcop_27.mtx,2,13
adder_dcop_28.mtx,2,13
adder_dcop_29.mtx,2,13
adder_dcop_30.mtx,2,13
adder_dcop_31.mtx,2,13
adder_dcop_32.mtx,2,13
adder_dcop_33.mtx,2,13
adder_dcop_34.mtx,2,13
adder_dcop_35.mtx,2,13
adder_dcop_36.mtx,2,13
adder_dcop_37.mtx,2,13
adder_dcop_38.mtx,2,13
adder_dcop_39.mtx,2,13
adder_dcop_40.mtx,2,13
adder_dcop_41.mtx,2,13
adder_dcop_42.mtx,2,13
adder_dcop_43.mtx,2,13
adder_dcop_44.mtx,2,13
adder_dcop_45.mtx,2,13
adder_dcop_46.mtx,2,13
adder_dcop_47.mtx,2,13
adder_dcop_48.mtx,2,13
adder_dcop_49.mtx,2,13
adder_dcop_50.mtx,2,13
adder_dcop_51.mtx,2,13
adder_dcop_52.mtx,2,13
adder_dcop_53.mtx,2,13
adder_dcop_54.mtx,2,13
adder_dcop_55.mtx,2,13
adder_dcop_56.mtx,2,13
adder_dcop_57.mtx,2,13
adder_dcop_58.mtx,2,13
adder_dcop_59.mtx,2,13
adder_dcop_60.mtx,2,13
adder_dcop_61.mtx,2,13
adder_dcop_62.mtx,2,13
adder_dcop_63.mtx,2,13
adder_dcop_64.mtx,2,13
adder_dcop_65.mtx,2,13
adder_dcop_66.mtx,2,13
adder_dcop_67.mtx,2,13
adder_dcop_68.mtx,2,13
adder_dcop_69.mtx,2,13
adder_trans_01.mtx,2,13
adder_trans_02.mtx,2,13
arenas-jazz.edges,2,68
arenas-meta.edges,2,24
ash608.mtx,2,13
ash958.mtx,2,15
b2_ss.mtx,2,26
bcspwr06.mtx,2,7
bcspwr07.mtx,2,7
bcspwr08.mtx,2,7
bcspwr09.mtx,2,7
bcspwr10.mtx,2,8
bcsstk02.mtx,2,66
bcsstk04.mtx,2,52
bcsstk05.mtx,2,35
bcsstk06.mtx,2,37
bcsstk07.mtx,2,37
bcsstk08.mtx,2,34
bcsstk09.mtx,2,41
bcsstk19.mtx,2,15
bcsstk20.mtx,2,11
bcsstm07.mtx,2,34
bcsstm12.mtx,2,34
bcsstm13.mtx,2,85
bcsstm35.mtx,2,6
bcsstm38.mtx,2,15
b_dyn.mtx,2,26
bfwa398.mtx,2,16
bfwa782.mtx,2,19
bfwb398.mtx,2,15
bfwb782.mtx,2,16
bibd_11_5.mtx,2,56
bibd_12_4.mtx,2,62
bibd_12_5.mtx,2,67
bibd_15_3.mtx,2,31
bibd_17_3.mtx,2,36
bibd_9_5.mtx,2,36
blckhole.mtx,2,14
bp_0.mtx,2,24
bp_1000.mtx,2,40
bp_1200.mtx,2,41
bp_1400.mtx,2,42
bp_1600.mtx,2,44
bp_200.mtx,2,30
bp_400.mtx,2,32
bp_600.mtx,2,35
bp_800.mtx,2,40
bwm2000.mtx,2,7
c-18.mtx,2,41
c-19.mtx,2,45
c-20.mtx,2,33
ca-CSphd.mtx,2,6
ca-Erdos992.mtx,2,26
cage7.mtx,2,24
cage8.mtx,2,42
cage.mtx,2,130
can_1054.mtx,2,21
can_1072.mtx,2,21
can_256.mtx,2,18
can_268.mtx,2,20
can_292.mtx,2,15
can_445.mtx,2,16
can_634.mtx,2,20
can_715.mtx,2,17
can_838.mtx,2,25
cat_ears_2_4.mtx,2,23
cavity01.mtx,2,46
cavity02.mtx,2,46
cavity03.mtx,2,46
cavity04.mtx,2,46
cavity15.mtx,2,31
cdde1.mtx,2,8
cdde2.mtx,2,8
cdde3.mtx,2,8
cdde4.mtx,2,8
cdde5.mtx,2,8
cdde6.mtx,2,8
celegans_metabolic.mtx,2,25
celegansneural.mtx,2,46
cep1.mtx,2,5
ch5-5-b2.mtx,2,28
ch5-5-b3.mtx,2,31
ch6-6-b2.mtx,2,54
ch6-6-b5.mtx,2,5
ch7-6-b1.mtx,2,30
ch7-7-b1.mtx,2,36
ch7-8-b1.mtx,2,42
ch7-9-b1.mtx,2,48
ch8-8-b1.mtx,2,49
Chebyshev1.mtx,2,10
Chem97ZtZ.mtx,2,2
circuit204.mtx,2,19
circuit_2.mtx,2,26
cis-n4c6-b2.mtx,2,41
Cities.mtx,2,43
ck400.mtx,2,14
ck656.mtx,2,14
cr42.mtx,2,22
cryg2500.mtx,2,10
CSphd.mtx,2,6
D_10.mtx,2,124
D_11.mtx,2,63
D_5.mtx,2,40
D_6.mtx,2,97
de063155.mtx,2,19
de063157.mtx,2,19
de080285.mtx,2,19
delaunay_n10.mtx,2,12
delaunay_n11.mtx,2,12
diag.mtx,2,6
DK01R.mtx,2,28
dw1024.mtx,2,10
dw2048.mtx,2,10
dw256A.mtx,2,9
dw256B.mtx,2,9
dwa512.mtx,2,9
dwg961a.mtx,2,8
dwg961b.mtx,2,18
dwt_1005.mtx,2,29
dwt_1007.mtx,2,15
dwt_1242.mtx,2,16
dwt_193.mtx,2,35
dwt_307.mtx,2,14
dwt_310.mtx,2,13
dwt_346.mtx,2,21
dwt_361.mtx,2,14
dwt_419.mtx,2,15
dwt_492.mtx,2,11
dwt_503.mtx,2,27
dwt_512.mtx,2,18
dwt_592.mtx,2,15
dwt_607.mtx,2,15
dwt_758.mtx,2,13
dwt_869.mtx,2,16
dwt_878.mtx,2,15
dwt_918.mtx,2,14
dwt_992.mtx,2,31
ego-facebook.edges,2,6
email.mtx,2,55
EPA.mtx,2,37
epb0.mtx,2,8
Erdos02.mtx,2,24
Erdos971.mtx,2,25
Erdos972.mtx,2,25
Erdos981.mtx,2,26
Erdos982.mtx,2,25
Erdos991.mtx,2,26
Erdos992.mtx,2,26
eris1176.mtx,2,80
EVA.mtx,2,11
EX1.mtx,2,68
ex21.mtx,2,53
EX2.mtx,2,69
ex32.mtx,2,25
filter2D.mtx,2,13
flower_7_1.mtx,2,14
flower_8_1.mtx,2,14
foodweb-baydry.edges,2,71
foodweb-baywet.edges,2,69
fpga_dcop_01.mtx,2,7
fpga_dcop_02.mtx,2,7
fpga_dcop_03.mtx,2,7
fpga_dcop_04.mtx,2,7
fpga_dcop_05.mtx,2,7
fpga_dcop_06.mtx,2,7
fpga_dcop_07.mtx,2,7
fpga_dcop_08.mtx,2,6
fpga_dcop_09.mtx,2,7
fpga_dcop_10.mtx,2,7
fpga_dcop_11.mtx,2,7
fpga_dcop_12.mtx,2,7
fpga_dcop_13.mtx,2,7
fpga_dcop_14.mtx,2,7
fpga_dcop_15.mtx,2,7
fpga_dcop_16.mtx,2,7
fpga_dcop_17.mtx,2,7
fpga_dcop_18.mtx,2,7
fpga_dcop_19.mtx,2,7
fpga_dcop_20.mtx,2,7
fpga_dcop_21.mtx,2,7
fpga_dcop_22.mtx,2,7
fpga_dcop_23.mtx,2,7
fpga_dcop_24.mtx,2,7
fpga_dcop_25.mtx,2,7
fpga_dcop_26.mtx,2,7
fpga_dcop_27.mtx,2,7
fpga_dcop_28.mtx,2,7
fpga_dcop_29.mtx,2,7
fpga_dcop_30.mtx,2,7
fpga_dcop_31.mtx,2,7
fpga_dcop_32.mtx,2,7
fpga_dcop_33.mtx,2,7
fpga_dcop_34.mtx,2,7
fpga_dcop_35.mtx,2,7
fpga_dcop_36.mtx,2,7
fpga_dcop_37.mtx,2,7
fpga_dcop_38.mtx,2,7
fpga_dcop_39.mtx,2,7
fpga_dcop_40.mtx,2,7
fpga_dcop_41.mtx,2,7
fpga_dcop_42.mtx,2,7
fpga_dcop_43.mtx,2,7
fpga_dcop_44.mtx,2,7
fpga_dcop_45.mtx,2,7
fpga_dcop_46.mtx,2,7
fpga_dcop_47.mtx,2,7
fpga_dcop_48.mtx,2,7
fpga_dcop_49.mtx,2,7
fpga_dcop_50.mtx,2,7
fpga_dcop_51.mtx,2,7
fpga_trans_01.mtx,2,10
fpga_trans_02.mtx,2,10
Franz1.mtx,2,17
fs_541_1.mtx,2,16
fs_541_2.mtx,2,16
fs_541_3.mtx,2,16
fs_541_4.mtx,2,16
fs_680_1.mtx,2,13
fs_680_2.mtx,2,13
fs_680_3.mtx,2,13
fs_760_1.mtx,2,24
fs_760_2.mtx,2,24
fs_760_3.mtx,2,24
G11.mtx,2,9
G12.mtx,2,9
G13.mtx,2,9
G14.mtx,2,35
G15.mtx,2,35
G16.mtx,2,36
G17.mtx,2,34
G18.mtx,2,35
G19.mtx,2,35
G20.mtx,2,36
G21.mtx,2,34
G32.mtx,2,9
G33.mtx,2,9
G34.mtx,2,9
G43.mtx,2,146
G44.mtx,2,145
G45.mtx,2,146
G46.mtx,2,146
G47.mtx,2,146
G48.mtx,2,10
G49.mtx,2,10
G50.mtx,2,10
G51.mtx,2,36
G52.mtx,2,36
G53.mtx,2,36
G54.mtx,2,36
G57.mtx,2,10
gams60am.mtx,2,7
gas11.mtx,2,17
GD00_c.mtx,2,12
GD06_Java.mtx,2,51
GD96_a.mtx,2,9
GL6_D_10.mtx,2,54
GL6_D_6.mtx,2,59
GL6_D_7.mtx,2,112
GL6_D_8.mtx,2,126
GL6_D_9.mtx,2,90
GL7d11.mtx,2,17
GL7d26.mtx,2,37
gr_30_30.mtx,2,16
gre_1107.mtx,2,22
gre_343.mtx,2,12
gre_512.mtx,2,13
grid2_dual.mtx,2,10
grid2.mtx,2,9
Harvard500.mtx,2,24
hor_131.mtx,2,23
IG5-8.mtx,2,38
IG5-9.mtx,2,68
iiasa.mtx,2,11
illc1033.mtx,2,30
illc1850.mtx,2,31
impcol_d.mtx,2,15
impcol_e.mtx,2,28
init_adder1.mtx,2,13
iprob.mtx,2,2
jagmesh1.mtx,2,12
jagmesh2.mtx,2,13
jagmesh3.mtx,2,13
jagmesh4.mtx,2,12
jagmesh5.mtx,2,12
jagmesh6.mtx,2,12
jagmesh7.mtx,2,11
jagmesh8.mtx,2,11
jagmesh9.mtx,2,12
jazz.mtx,2,68
Journals.mtx,2,99
jpwh_991.mtx,2,14
kneser_6_2_1.mtx,2,18
l9.mtx,2,29
laser.mtx,2,4
L.mtx,2,8
lns_511.mtx,2,13
lnsp_511.mtx,2,13
lp_agg2.mtx,2,32
lp_agg3.mtx,2,33
lp_agg.mtx,2,27
lp_bandm.mtx,2,33
lp_beaconfd.mtx,2,47
lp_bnl1.mtx,2,24
lp_bore3d.mtx,2,31
lp_brandy.mtx,2,47
lp_capri.mtx,2,31
lp_degen2.mtx,2,47
lp_e226.mtx,2,30
lp_etamacro.mtx,2,20
lp_fffff800.mtx,2,55
lp_finnis.mtx,2,16
lp_fit1p.mtx,2,28
lp_ganges.mtx,2,48
lp_gfrd_pnc.mtx,2,11
lp_grow15.mtx,2,58
lp_grow22.mtx,2,58
lp_grow7.mtx,2,54
lpi_bgdbg1.mtx,2,15
lpi_bgetam.mtx,2,20
lpi_chemcom.mtx,2,13
lpi_cplex2.mtx,2,15
lpi_klein2.mtx,2,52
lpi_mondou2.mtx,2,10
lpi_pang.mtx,2,29
lpi_pilot4i.mtx,2,67
lpi_qual.mtx,2,30
lpi_reactor.mtx,2,23
lpi_refinery.mtx,2,30
lp_israel.mtx,2,50
lpi_vol1.mtx,2,30
lp_ken_07.mtx,2,12
lp_lotfi.mtx,2,18
lp_modszk1.mtx,2,14
lp_nug05.mtx,2,33
lp_nug06.mtx,2,38
lp_nug07.mtx,2,37
lp_nug08.mtx,2,42
lp_perold.mtx,2,35
lp_pilot4.mtx,2,67
lp_pilot_we.mtx,2,28
lp_qap8.mtx,2,39
lp_scagr25.mtx,2,14
lp_scfxm1.mtx,2,33
lp_scfxm2.mtx,2,35
lp_scfxm3.mtx,2,37
lp_scorpion.mtx,2,21
lp_scrs8.mtx,2,19
lp_scsd1.mtx,2,33
lp_scsd6.mtx,2,32
lp_scsd8.mtx,2,43
lp_sctap1.mtx,2,16
lp_sctap2.mtx,2,19
lp_sctap3.mtx,2,19
lp_share1b.mtx,2,30
lp_shell.mtx,2,16
lp_ship04l.mtx,2,28
lp_ship04s.mtx,2,27
lp_ship08s.mtx,2,27
lp_ship12s.mtx,2,28
lp_sierra.mtx,2,13
lp_stair.mtx,2,49
lp_standata.mtx,2,12
lp_standgub.mtx,2,12
lp_standmps.mtx,2,14
lp_stocfor2.mtx,2,24
lp_tuff.mtx,2,47
lp_vtp_base.mtx,2,17
lshp1009.mtx,2,13
lshp1270.mtx,2,13
lshp1561.mtx,2,14
lshp1882.mtx,2,14
lshp2233.mtx,2,14
lshp2614.mtx,2,14
lshp3025.mtx,2,13
lshp_406.mtx,2,12
lshp_577.mtx,2,12
lshp_778.mtx,2,12
lund_a.mtx,2,26
lund_b.mtx,2,26
lung1.mtx,2,9
M20PI_n1.mtx,2,4
M20PI_n.mtx,2,4
M40PI_n1.mtx,2,4
M40PI_n.mtx,2,4
M80PI_n1.mtx,2,4
M80PI_n.mtx,2,4
maayan-faa.edges,2,17
maayan-figeys.edges,2,45
maayan-foodweb.edges,2,50
maayan-Stelzl.edges,2,29
maayan-vidal.edges,2,29
mahindas.mtx,2,56
Maragal_2.mtx,2,64
mcca.mtx,2,44
mhd3200b.mtx,2,10
mhda416.mtx,2,44
minnesota.mtx,2,5
mk10-b1.mtx,2,29
mk10-b2.mtx,2,57
mk10-b4.mtx,2,5
mk11-b1.mtx,2,37
mk12-b1.mtx,2,46
mk9-b2.mtx,2,38
mk9-b3.mtx,2,19
model1.mtx,2,35
model2.mtx,2,60
moreno_mac.edges,2,55
moreno_names.edges,2,67
moreno_oz.edges,2,53
moreno_propro.edges,2,10
n2c6-b2.mtx,2,29
n2c6-b3.mtx,2,37
n2c6-b9.mtx,2,26
n3c5-b4.mtx,2,39
n3c5-b5.mtx,2,39
n3c6-b10.mtx,2,39
n3c6-b2.mtx,2,29
n3c6-b3.mtx,2,37
n4c5-b10.mtx,2,17
n4c5-b2.mtx,2,29
n4c5-b3.mtx,2,38
n4c5-b9.mtx,2,37
n4c6-b2.mtx,2,41
nemsafm.mtx,2,10
nemscem.mtx,2,14
netscience.mtx,2,20
netz4504_dual.mtx,2,8
netz4504.mtx,2,4
nnc1374.mtx,2,13
nnc666.mtx,2,12
nos2.mtx,2,7
nos3.mtx,2,33
nos5.mtx,2,26
nos6.mtx,2,8
nos7.mtx,2,13
NotreDame_yeast.mtx,2,10
nsic.mtx,2,40
olm1000.mtx,2,6
olm2000.mtx,2,6
olm5000.mtx,2,6
opsahl-powergrid.edges,2,10
opsahl-ucforum.edges,2,111
orsirr_1.mtx,2,14
orsirr_2.mtx,2,14
orsreg_1.mtx,2,14
p0201.mtx,2,33
p0282.mtx,2,39
p0291.mtx,2,49
p0548.mtx,2,11
p2756.mtx,2,15
pde2961.mtx,2,10
pde900.mtx,2,8
Pd.mtx,2,6
Pd_rhs.mtx,2,14
plat362.mtx,2,29
plsk1919.mtx,2,10
poisson2D.mtx,2,11
poli.mtx,2,8
pores_2.mtx,2,24
pores_3.mtx,2,15
power.mtx,2,10
problem1.mtx,2,12
progas.mtx,2,31
qh1484.mtx,2,7
qh768.mtx,2,8
qh882.mtx,2,8
qiulp.mtx,2,10
QRpivot.mtx,2,38
radoslaw_email.edges,2,77
rail_1357.mtx,2,12
rajat02.mtx,2,8
rajat04.mtx,2,15
rajat12.mtx,2,21
rajat19.mtx,2,11
rdb1250l.mtx,2,11
rdb1250.mtx,2,11
rdb2048.mtx,2,12
rdb2048_noL.mtx,2,12
rdb3200l.mtx,2,14
rdb450l.mtx,2,10
rdb450.mtx,2,10
rdb800l.mtx,2,11
rdb968.mtx,2,11
rel6.mtx,2,39
relat5.mtx,2,19
relat6.mtx,2,38
Roget.mtx,2,29
rosen7.mtx,2,27
rotor2.mtx,2,44
rw496.mtx,2,12
S20PI_n1.mtx,2,4
S20PI_n.mtx,2,4
S40PI_n1.mtx,2,4
S40PI_n.mtx,2,4
S80PI_n1.mtx,2,4
S80PI_n.mtx,2,4
saylr3.mtx,2,9
saylr4.mtx,2,13
scagr7-2c.mtx,2,15
scrs8-2b.mtx,2,12
scrs8-2c.mtx,2,12
sherman1.mtx,2,9
sherman3.mtx,2,14
sherman4.mtx,2,10
shl_0.mtx,2,9
shl_200.mtx,2,10
shl_400.mtx,2,10
Si2.mtx,2,111
Sieber.mtx,2,8
SmaGri.mtx,2,44
small.mtx,2,15
sociopatterns-hypertext.edges,2,72
sociopatterns-infectious.edges,2,41
spiral.mtx,2,48
sstmodel.mtx,2,21
steam1.mtx,2,24
steam2.mtx,2,40
str_0.mtx,2,51
str_200.mtx,2,65
str_400.mtx,2,73
str_600.mtx,2,70
stufe.mtx,2,8
subelj_euroroad.edges,2,6
swang1.mtx,2,13
swang2.mtx,2,13
TF11.mtx,2,54
TF12.mtx,2,78
tols1090.mtx,2,19
tols2000.mtx,2,19
tols340.mtx,2,19
tols4000.mtx,2,19
tols90.mtx,2,19
Trec10.mtx,2,102
Trec9.mtx,2,43
Trefethen_200b.mtx,2,39
Trefethen_200.mtx,2,40
Trefethen_300.mtx,2,49
Trefethen_500.mtx,2,69
Trefethen_700.mtx,2,81
tub1000.mtx,2,6
ukerbe1_dual.mtx,2,8
ukerbe1.mtx,2,4
uk.mtx,2,7
USAir97.mtx,2,39
USpowerGrid.mtx,2,10
utm300.mtx,2,38
wang1.mtx,2,15
wang2.mtx,2,15
watt_1.mtx,2,13
watt_2.mtx,2,16
1138_bus.mtx,3,10
130bit.mtx,3,207
685_bus.mtx,3,14
abb313.mtx,3,68
add20.mtx,3,56
add32.mtx,3,19
adder_dcop_01.mtx,3,19
adder_dcop_02.mtx,3,21
adder_dcop_03.mtx,3,19
adder_dcop_04.mtx,3,19
adder_dcop_05.mtx,3,19
adder_dcop_06.mtx,3,19
adder_dcop_07.mtx,3,22
adder_dcop_08.mtx,3,20
adder_dcop_09.mtx,3,20
adder_dcop_10.mtx,3,19
adder_dcop_11.mtx,3,19
adder_dcop_12.mtx,3,21
adder_dcop_13.mtx,3,20
adder_dcop_14.mtx,3,21
adder_dcop_15.mtx,3,21
adder_dcop_16.mtx,3,21
adder_dcop_17.mtx,3,21
adder_dcop_18.mtx,3,21
adder_dcop_19.mtx,3,21
adder_dcop_20.mtx,3,21
adder_dcop_21.mtx,3,21
adder_dcop_22.mtx,3,21
adder_dcop_23.mtx,3,21
adder_dcop_24.mtx,3,21
adder_dcop_25.mtx,3,21
adder_dcop_26.mtx,3,21
adder_dcop_27.mtx,3,21
adder_dcop_28.mtx,3,21
adder_dcop_29.mtx,3,21
adder_dcop_30.mtx,3,21
adder_dcop_31.mtx,3,21
adder_dcop_32.mtx,3,21
adder_dcop_33.mtx,3,21
adder_dcop_34.mtx,3,21
adder_dcop_35.mtx,3,21
adder_dcop_36.mtx,3,21
adder_dcop_37.mtx,3,21
adder_dcop_38.mtx,3,21
adder_dcop_39.mtx,3,21
adder_dcop_40.mtx,3,21
adder_dcop_41.mtx,3,21
adder_dcop_42.mtx,3,21
adder_dcop_43.mtx,3,21
adder_dcop_44.mtx,3,19
adder_dcop_45.mtx,3,21
adder_dcop_46.mtx,3,21
adder_dcop_47.mtx,3,21
adder_dcop_48.mtx,3,21
adder_dcop_49.mtx,3,21
adder_dcop_50.mtx,3,21
adder_dcop_51.mtx,3,21
adder_dcop_52.mtx,3,21
adder_dcop_53.mtx,3,21
adder_dcop_54.mtx,3,21
adder_dcop_55.mtx,3,21
adder_dcop_56.mtx,3,21
adder_dcop_57.mtx,3,21
adder_dcop_58.mtx,3,21
adder_dcop_59.mtx,3,21
adder_dcop_60.mtx,3,21
adder_dcop_61.mtx,3,21
adder_dcop_62.mtx,3,21
adder_dcop_63.mtx,3,21
adder_dcop_64.mtx,3,21
adder_dcop_65.mtx,3,21
adder_dcop_66.mtx,3,21
adder_dcop_67.mtx,3,21
adder_dcop_68.mtx,3,21
adder_dcop_69.mtx,3,21
adder_trans_01.mtx,3,20
adder_trans_02.mtx,3,20
arenas-jazz.edges,3,97
arenas-meta.edges,3,33
ash608.mtx,3,27
ash958.mtx,3,29
b2_ss.mtx,3,81
bcspwr06.mtx,3,10
bcspwr07.mtx,3,10
bcspwr08.mtx,3,11
bcspwr09.mtx,3,12
bcspwr10.mtx,3,13
bcsstk02.mtx,3,66
bcsstk04.mtx,3,74
bcsstk05.mtx,3,48
bcsstk06.mtx,3,68
bcsstk07.mtx,3,68
bcsstk08.mtx,3,65
bcsstk09.mtx,3,77
bcsstk19.mtx,3,24
bcsstk20.mtx,3,15
bcsstm07.mtx,3,67
bcsstm12.mtx,3,55
bcsstm13.mtx,3,169
bcsstm35.mtx,3,6
bcsstm38.mtx,3,15
b_dyn.mtx,3,81
bfwa398.mtx,3,29
bfwa782.mtx,3,33
bfwb398.mtx,3,26
bfwb782.mtx,3,31
bibd_11_5.mtx,3,56
bibd_12_4.mtx,3,66
bibd_12_5.mtx,3,67
bibd_15_3.mtx,3,65
bibd_17_3.mtx,3,79
bibd_9_5.mtx,3,36
blckhole.mtx,3,25
bp_0.mtx,3,60
bp_1000.mtx,3,131
bp_1200.mtx,3,133
bp_1400.mtx,3,143
bp_1600.mtx,3,138
bp_200.mtx,3,86
bp_400.mtx,3,95
bp_600.mtx,3,105
bp_800.mtx,3,130
bwm2000.mtx,3,9
c-18.mtx,3,59
c-19.mtx,3,78
c-20.mtx,3,68
ca-CSphd.mtx,3,8
ca-Erdos992.mtx,3,61
cage7.mtx,3,47
cage8.mtx,3,105
cage.mtx,3,192
can_1054.mtx,3,39
can_1072.mtx,3,40
can_256.mtx,3,30
can_268.mtx,3,35
can_292.mtx,3,26
can_445.mtx,3,29
can_634.mtx,3,40
can_715.mtx,3,31
can_838.mtx,3,48
cat_ears_2_4.mtx,3,88
cavity01.mtx,3,68
cavity02.mtx,3,68
cavity03.mtx,3,68
cavity04.mtx,3,68
cavity15.mtx,3,40
cdde1.mtx,3,13
cdde2.mtx,3,13
cdde3.mtx,3,13
cdde4.mtx,3,13
cdde5.mtx,3,13
cdde6.mtx,3,13
celegans_metabolic.mtx,3,33
celegansneural.mtx,3,87
cep1.mtx,3,8
ch5-5-b2.mtx,3,70
ch5-5-b3.mtx,3,104
ch6-6-b2.mtx,3,111
ch6-6-b5.mtx,3,8
ch7-6-b1.mtx,3,41
ch7-7-b1.mtx,3,48
ch7-8-b1.mtx,3,56
ch7-9-b1.mtx,3,63
ch8-8-b1.mtx,3,63
Chebyshev1.mtx,3,13
Chem97ZtZ.mtx,3,2
circuit204.mtx,3,34
circuit_2.mtx,3,29
cis-n4c6-b2.mtx,3,74
Cities.mtx,3,46
ck400.mtx,3,18
ck656.mtx,3,18
cr42.mtx,3,32
cryg2500.mtx,3,15
CSphd.mtx,3,8
D_10.mtx,3,315
D_11.mtx,3,124
D_5.mtx,3,78
D_6.mtx,3,274
de063155.mtx,3,46
de063157.mtx,3,46
de080285.mtx,3,43
delaunay_n10.mtx,3,19
delaunay_n11.mtx,3,19
diag.mtx,3,9
DK01R.mtx,3,41
dw1024.mtx,3,18
dw2048.mtx,3,18
dw256A.mtx,3,16
dw256B.mtx,3,15
dwa512.mtx,3,16
dwg961a.mtx,3,14
dwg961b.mtx,3,36
dwt_1005.mtx,3,46
dwt_1007.mtx,3,26
dwt_1242.mtx,3,28
dwt_193.mtx,3,63
dwt_307.mtx,3,24
dwt_310.mtx,3,20
dwt_346.mtx,3,38
dwt_361.mtx,3,23
dwt_419.mtx,3,25
dwt_492.mtx,3,16
dwt_503.mtx,3,46
dwt_512.mtx,3,30
dwt_592.mtx,3,26
dwt_607.mtx,3,31
dwt_758.mtx,3,23
dwt_869.mtx,3,25
dwt_878.mtx,3,26
dwt_918.mtx,3,24
dwt_992.mtx,3,56
ego-facebook.edges,3,7
email.mtx,3,143
EPA.mtx,3,101
epb0.mtx,3,10
Erdos02.mtx,3,63
Erdos971.mtx,3,43
Erdos972.mtx,3,58
Erdos981.mtx,3,44
Erdos982.mtx,3,60
Erdos991.mtx,3,48
Erdos992.mtx,3,61
eris1176.mtx,3,80
EVA.mtx,3,13
EX1.mtx,3,212
ex21.mtx,3,93
EX2.mtx,3,218
ex32.mtx,3,45
filter2D.mtx,3,21
flower_7_1.mtx,3,38
flower_8_1.mtx,3,38
foodweb-baydry.edges,3,99
foodweb-baywet.edges,3,100
fpga_dcop_01.mtx,3,20
fpga_dcop_02.mtx,3,20
fpga_dcop_03.mtx,3,20
fpga_dcop_04.mtx,3,19
fpga_dcop_05.mtx,3,20
fpga_dcop_06.mtx,3,19
fpga_dcop_07.mtx,3,20
fpga_dcop_08.mtx,3,20
fpga_dcop_09.mtx,3,20
fpga_dcop_10.mtx,3,20
fpga_dcop_11.mtx,3,20
fpga_dcop_12.mtx,3,20
fpga_dcop_13.mtx,3,20
fpga_dcop_14.mtx,3,20
fpga_dcop_15.mtx,3,20
fpga_dcop_16.mtx,3,20
fpga_dcop_17.mtx,3,20
fpga_dcop_18.mtx,3,20
fpga_dcop_19.mtx,3,20
fpga_dcop_20.mtx,3,20
fpga_dcop_21.mtx,3,20
fpga_dcop_22.mtx,3,20
fpga_dcop_23.mtx,3,20
fpga_dcop_24.mtx,3,20
fpga_dcop_25.mtx,3,20
fpga_dcop_26.mtx,3,20
fpga_dcop_27.mtx,3,20
fpga_dcop_28.mtx,3,20
fpga_dcop_29.mtx,3,20
fpga_dcop_30.mtx,3,20
fpga_dcop_31.mtx,3,20
fpga_dcop_32.mtx,3,20
fpga_dcop_33.mtx,3,20
fpga_dcop_34.mtx,3,20
fpga_dcop_35.mtx,3,20
fpga_dcop_36.mtx,3,20
fpga_dcop_37.mtx,3,20
fpga_dcop_38.mtx,3,20
fpga_dcop_39.mtx,3,20
fpga_dcop_40.mtx,3,20
fpga_dcop_41.mtx,3,20
fpga_dcop_42.mtx,3,20
fpga_dcop_43.mtx,3,20
fpga_dcop_44.mtx,3,20
fpga_dcop_45.mtx,3,20
fpga_dcop_46.mtx,3,20
fpga_dcop_47.mtx,3,20
fpga_dcop_48.mtx,3,20
fpga_dcop_49.mtx,3,20
fpga_dcop_50.mtx,3,20
fpga_dcop_51.mtx,3,20
fpga_trans_01.mtx,3,14
fpga_trans_02.mtx,3,14
Franz1.mtx,3,53
fs_541_1.mtx,3,35
fs_541_2.mtx,3,35
fs_541_3.mtx,3,35
fs_541_4.mtx,3,35
fs_680_1.mtx,3,19
fs_680_2.mtx,3,19
fs_680_3.mtx,3,19
fs_760_1.mtx,3,46
fs_760_2.mtx,3,46
fs_760_3.mtx,3,46
G11.mtx,3,14
G12.mtx,3,14
G13.mtx,3,15
G14.mtx,3,89
G15.mtx,3,85
G16.mtx,3,90
G17.mtx,3,84
G18.mtx,3,89
G19.mtx,3,85
G20.mtx,3,90
G21.mtx,3,84
G32.mtx,3,15
G33.mtx,3,15
G34.mtx,3,16
G43.mtx,3,523
G44.mtx,3,528
G45.mtx,3,530
G46.mtx,3,535
G47.mtx,3,521
G48.mtx,3,16
G49.mtx,3,17
G50.mtx,3,17
G51.mtx,3,98
G52.mtx,3,100
G53.mtx,3,96
G54.mtx,3,98
G57.mtx,3,17
gams60am.mtx,3,9
gas11.mtx,3,43
GD00_c.mtx,3,20
GD06_Java.mtx,3,95
GD96_a.mtx,3,14
GL6_D_10.mtx,3,109
GL6_D_6.mtx,3,132
GL6_D_7.mtx,3,297
GL6_D_8.mtx,3,331
GL6_D_9.mtx,3,225
GL7d11.mtx,3,35
GL7d26.mtx,3,80
gr_30_30.mtx,3,25
gre_1107.mtx,3,62
gre_343.mtx,3,29
gre_512.mtx,3,31
grid2_dual.mtx,3,15
grid2.mtx,3,15
Harvard500.mtx,3,35
hor_131.mtx,3,41
IG5-8.mtx,3,73
IG5-9.mtx,3,159
iiasa.mtx,3,28
illc1033.mtx,3,51
illc1850.mtx,3,95
impcol_d.mtx,3,28
impcol_e.mtx,3,58
init_adder1.mtx,3,19
iprob.mtx,3,2
jagmesh1.mtx,3,20
jagmesh2.mtx,3,21
jagmesh3.mtx,3,21
jagmesh4.mtx,3,19
jagmesh5.mtx,3,19
jagmesh6.mtx,3,18
jagmesh7.mtx,3,18
jagmesh8.mtx,3,19
jagmesh9.mtx,3,21
jazz.mtx,3,95
Journals.mtx,3,107
jpwh_991.mtx,3,28
kneser_6_2_1.mtx,3,60
l9.mtx,3,59
laser.mtx,3,6
L.mtx,3,14
lns_511.mtx,3,25
lnsp_511.mtx,3,25
lp_agg2.mtx,3,82
lp_agg3.mtx,3,85
lp_agg.mtx,3,57
lp_bandm.mtx,3,78
lp_beaconfd.mtx,3,63
lp_bnl1.mtx,3,60
lp_bore3d.mtx,3,55
lp_brandy.mtx,3,75
lp_capri.mtx,3,64
lp_degen2.mtx,3,108
lp_e226.mtx,3,66
lp_etamacro.mtx,3,49
lp_fffff800.mtx,3,145
lp_finnis.mtx,3,33
lp_fit1p.mtx,3,29
lp_ganges.mtx,3,117
lp_gfrd_pnc.mtx,3,21
lp_grow15.mtx,3,124
lp_grow22.mtx,3,128
lp_grow7.mtx,3,100
lpi_bgdbg1.mtx,3,30
lpi_bgetam.mtx,3,49
lpi_chemcom.mtx,3,30
lpi_cplex2.mtx,3,29
lpi_klein2.mtx,3,67
lpi_mondou2.mtx,3,18
lpi_pang.mtx,3,60
lpi_pilot4i.mtx,3,113
lpi_qual.mtx,3,72
lpi_reactor.mtx,3,45
lpi_refinery.mtx,3,71
lp_israel.mtx,3,62
lpi_vol1.mtx,3,72
lp_ken_07.mtx,3,30
lp_lotfi.mtx,3,39
lp_modszk1.mtx,3,35
lp_nug05.mtx,3,89
lp_nug06.mtx,3,130
lp_nug07.mtx,3,164
lp_nug08.mtx,3,193
lp_perold.mtx,3,99
lp_pilot4.mtx,3,113
lp_pilot_we.mtx,3,69
lp_qap8.mtx,3,186
lp_scagr25.mtx,3,31
lp_scfxm1.mtx,3,67
lp_scfxm2.mtx,3,77
lp_scfxm3.mtx,3,73
lp_scorpion.mtx,3,46
lp_scrs8.mtx,3,33
lp_scsd1.mtx,3,59
lp_scsd6.mtx,3,62
lp_scsd8.mtx,3,58
lp_sctap1.mtx,3,35
lp_sctap2.mtx,3,45
lp_sctap3.mtx,3,43
lp_share1b.mtx,3,57
lp_shell.mtx,3,27
lp_ship04l.mtx,3,55
lp_ship04s.mtx,3,51
lp_ship08s.mtx,3,63
lp_ship12s.mtx,3,61
lp_sierra.mtx,3,50
lp_stair.mtx,3,111
lp_standata.mtx,3,26
lp_standgub.mtx,3,29
lp_standmps.mtx,3,38
lp_stocfor2.mtx,3,62
lp_tuff.mtx,3,58
lp_vtp_base.mtx,3,39
lshp1009.mtx,3,21
lshp1270.mtx,3,22
lshp1561.mtx,3,23
lshp1882.mtx,3,22
lshp2233.mtx,3,22
lshp2614.mtx,3,23
lshp3025.mtx,3,23
lshp_406.mtx,3,19
lshp_577.mtx,3,21
lshp_778.mtx,3,21
lund_a.mtx,3,40
lund_b.mtx,3,41
lung1.mtx,3,11
M20PI_n1.mtx,3,5
M20PI_n.mtx,3,5
M40PI_n1.mtx,3,5
M40PI_n.mtx,3,5
M80PI_n1.mtx,3,5
M80PI_n.mtx,3,5
maayan-faa.edges,3,33
maayan-figeys.edges,3,83
maayan-foodweb.edges,3,59
maayan-Stelzl.edges,3,52
maayan-vidal.edges,3,76
mahindas.mtx,3,109
Maragal_2.mtx,3,113
mcca.mtx,3,51
mhd3200b.mtx,3,12
mhda416.mtx,3,62
minnesota.mtx,3,8
mk10-b1.mtx,3,42
mk10-b2.mtx,3,124
mk10-b4.mtx,3,7
mk11-b1.mtx,3,53
mk12-b1.mtx,3,65
mk9-b2.mtx,3,91
mk9-b3.mtx,3,64
model1.mtx,3,84
model2.mtx,3,124
moreno_mac.edges,3,56
moreno_names.edges,3,130
moreno_oz.edges,3,100
moreno_propro.edges,3,18
n2c6-b2.mtx,3,49
n2c6-b3.mtx,3,126
n2c6-b9.mtx,3,48
n3c5-b4.mtx,3,96
n3c5-b5.mtx,3,96
n3c6-b10.mtx,3,113
n3c6-b2.mtx,3,49
n3c6-b3.mtx,3,126
n4c5-b10.mtx,3,41
n4c5-b2.mtx,3,49
n4c5-b3.mtx,3,126
n4c5-b9.mtx,3,134
n4c6-b2.mtx,3,74
nemsafm.mtx,3,18
nemscem.mtx,3,31
netscience.mtx,3,20
netz4504_dual.mtx,3,13
netz4504.mtx,3,9
nnc1374.mtx,3,23
nnc666.mtx,3,21
nos2.mtx,3,9
nos3.mtx,3,59
nos5.mtx,3,76
nos6.mtx,3,13
nos7.mtx,3,26
NotreDame_yeast.mtx,3,20
nsic.mtx,3,71
olm1000.mtx,3,8
olm2000.mtx,3,8
olm5000.mtx,3,8
opsahl-powergrid.edges,3,14
opsahl-ucforum.edges,3,222
orsirr_1.mtx,3,28
orsirr_2.mtx,3,29
orsreg_1.mtx,3,27
p0201.mtx,3,43
p0282.mtx,3,42
p0291.mtx,3,58
p0548.mtx,3,17
p2756.mtx,3,37
pde2961.mtx,3,15
pde900.mtx,3,14
Pd.mtx,3,7
Pd_rhs.mtx,3,19
plat362.mtx,3,52
plsk1919.mtx,3,17
poisson2D.mtx,3,17
poli.mtx,3,11
pores_2.mtx,3,50
pores_3.mtx,3,26
power.mtx,3,14
problem1.mtx,3,19
progas.mtx,3,113
qh1484.mtx,3,11
qh768.mtx,3,10
qh882.mtx,3,10
qiulp.mtx,3,23
QRpivot.mtx,3,123
radoslaw_email.edges,3,87
rail_1357.mtx,3,18
rajat02.mtx,3,13
rajat04.mtx,3,22
rajat12.mtx,3,30
rajat19.mtx,3,14
rdb1250l.mtx,3,21
rdb1250.mtx,3,21
rdb2048.mtx,3,23
rdb2048_noL.mtx,3,23
rdb3200l.mtx,3,24
rdb450l.mtx,3,19
rdb450.mtx,3,19
rdb800l.mtx,3,20
rdb968.mtx,3,20
rel6.mtx,3,90
relat5.mtx,3,28
relat6.mtx,3,95
Roget.mtx,3,86
rosen7.mtx,3,30
rotor2.mtx,3,60
rw496.mtx,3,20
S20PI_n1.mtx,3,5
S20PI_n.mtx,3,5
S40PI_n1.mtx,3,5
S40PI_n.mtx,3,5
S80PI_n1.mtx,3,5
S80PI_n.mtx,3,5
saylr3.mtx,3,15
saylr4.mtx,3,27
scagr7-2c.mtx,3,32
scrs8-2b.mtx,3,26
scrs8-2c.mtx,3,26
sherman1.mtx,3,15
sherman3.mtx,3,32
sherman4.mtx,3,21
shl_0.mtx,3,16
shl_200.mtx,3,17
shl_400.mtx,3,18
Si2.mtx,3,350
Sieber.mtx,3,10
SmaGri.mtx,3,95
small.mtx,3,34
sociopatterns-hypertext.edges,3,83
sociopatterns-infectious.edges,3,87
spiral.mtx,3,66
sstmodel.mtx,3,42
steam1.mtx,3,49
steam2.mtx,3,84
str_0.mtx,3,93
str_200.mtx,3,127
str_400.mtx,3,124
str_600.mtx,3,134
stufe.mtx,3,13
subelj_euroroad.edges,3,10
swang1.mtx,3,22
swang2.mtx,3,22
TF11.mtx,3,106
TF12.mtx,3,220
tols1090.mtx,3,19
tols2000.mtx,3,19
tols340.mtx,3,19
tols4000.mtx,3,19
tols90.mtx,3,19
Trec10.mtx,3,123
Trec9.mtx,3,48
Trefethen_200b.mtx,3,106
Trefethen_200.mtx,3,104
Trefethen_300.mtx,3,140
Trefethen_500.mtx,3,195
Trefethen_700.mtx,3,243
tub1000.mtx,3,8
ukerbe1_dual.mtx,3,14
ukerbe1.mtx,3,8
uk.mtx,3,11
USAir97.mtx,3,49
USpowerGrid.mtx,3,15
utm300.mtx,3,62
wang1.mtx,3,28
wang2.mtx,3,28
watt_1.mtx,3,27
watt_2.mtx,3,27
1138_bus.mtx,4,13
130bit.mtx,4,304
685_bus.mtx,4,19
abb313.mtx,4,96
add20.mtx,4,65
add32.mtx,4,21
adder_dcop_01.mtx,4,30
adder_dcop_02.mtx,4,31
adder_dcop_03.mtx,4,32
adder_dcop_04.mtx,4,27
adder_dcop_05.mtx,4,29
adder_dcop_06.mtx,4,31
adder_dcop_07.mtx,4,31
adder_dcop_08.mtx,4,30
adder_dcop_09.mtx,4,30
adder_dcop_10.mtx,4,30
adder_dcop_11.mtx,4,30
adder_dcop_12.mtx,4,31
adder_dcop_13.mtx,4,30
adder_dcop_14.mtx,4,31
adder_dcop_15.mtx,4,31
adder_dcop_16.mtx,4,31
adder_dcop_17.mtx,4,31
adder_dcop_18.mtx,4,31
adder_dcop_19.mtx,4,31
adder_dcop_20.mtx,4,31
adder_dcop_21.mtx,4,31
adder_dcop_22.mtx,4,31
adder_dcop_23.mtx,4,31
adder_dcop_24.mtx,4,31
adder_dcop_25.mtx,4,31
adder_dcop_26.mtx,4,31
adder_dcop_27.mtx,4,31
adder_dcop_28.mtx,4,31
adder_dcop_29.mtx,4,31
adder_dcop_30.mtx,4,31
adder_dcop_31.mtx,4,31
adder_dcop_32.mtx,4,31
adder_dcop_33.mtx,4,31
adder_dcop_34.mtx,4,31
adder_dcop_35.mtx,4,31
adder_dcop_36.mtx,4,31
adder_dcop_37.mtx,4,31
adder_dcop_38.mtx,4,31
adder_dcop_39.mtx,4,31
adder_dcop_40.mtx,4,31
adder_dcop_41.mtx,4,31
adder_dcop_42.mtx,4,31
adder_dcop_43.mtx,4,31
adder_dcop_44.mtx,4,31
adder_dcop_45.mtx,4,31
adder_dcop_46.mtx,4,31
adder_dcop_47.mtx,4,31
adder_dcop_48.mtx,4,31
adder_dcop_49.mtx,4,31
adder_dcop_50.mtx,4,31
adder_dcop_51.mtx,4,31
adder_dcop_52.mtx,4,31
adder_dcop_53.mtx,4,31
adder_dcop_54.mtx,4,31
adder_dcop_55.mtx,4,31
adder_dcop_56.mtx,4,31
adder_dcop_57.mtx,4,31
adder_dcop_58.mtx,4,31
adder_dcop_59.mtx,4,31
adder_dcop_60.mtx,4,31
adder_dcop_61.mtx,4,31
adder_dcop_62.mtx,4,31
adder_dcop_63.mtx,4,31
adder_dcop_64.mtx,4,31
adder_dcop_65.mtx,4,31
adder_dcop_66.mtx,4,31
adder_dcop_67.mtx,4,31
adder_dcop_68.mtx,4,31
adder_dcop_69.mtx,4,31
adder_trans_01.mtx,4,28
adder_trans_02.mtx,4,28
arenas-jazz.edges,4,109
arenas-meta.edges,4,40
ash608.mtx,4,56
ash958.mtx,4,56
b2_ss.mtx,4,188
bcspwr06.mtx,4,14
bcspwr07.mtx,4,13
bcspwr08.mtx,4,14
bcspwr09.mtx,4,15
bcspwr10.mtx,4,18
bcsstk02.mtx,4,66
bcsstk04.mtx,4,77
bcsstk05.mtx,4,59
bcsstk06.mtx,4,97
bcsstk07.mtx,4,97
bcsstk08.mtx,4,121
bcsstk09.mtx,4,126
bcsstk19.mtx,4,34
bcsstk20.mtx,4,18
bcsstm07.mtx,4,93
bcsstm12.mtx,4,84
bcsstm13.mtx,4,244
bcsstm35.mtx,4,6
bcsstm38.mtx,4,15
b_dyn.mtx,4,196
bfwa398.mtx,4,41
bfwa782.mtx,4,50
bfwb398.mtx,4,38
bfwb782.mtx,4,45
bibd_11_5.mtx,4,56
bibd_12_4.mtx,4,66
bibd_12_5.mtx,4,67
bibd_15_3.mtx,4,92
bibd_17_3.mtx,4,114
bibd_9_5.mtx,4,36
blckhole.mtx,4,38
bp_0.mtx,4,119
bp_1000.mtx,4,246
bp_1200.mtx,4,247
bp_1400.mtx,4,261
bp_1600.mtx,4,256
bp_200.mtx,4,169
bp_400.mtx,4,187
bp_600.mtx,4,212
bp_800.mtx,4,229
bwm2000.mtx,4,12
c-18.mtx,4,84
c-19.mtx,4,137
c-20.mtx,4,87
ca-CSphd.mtx,4,9
ca-Erdos992.mtx,4,107
cage7.mtx,4,73
cage8.mtx,4,182
cage.mtx,4,237
can_1054.mtx,4,63
can_1072.mtx,4,64
can_256.mtx,4,44
can_268.mtx,4,51
can_292.mtx,4,36
can_445.mtx,4,47
can_634.mtx,4,64
can_715.mtx,4,43
can_838.mtx,4,75
cat_ears_2_4.mtx,4,247
cavity01.mtx,4,87
cavity02.mtx,4,87
cavity03.mtx,4,87
cavity04.mtx,4,87
cavity15.mtx,4,43
cdde1.mtx,4,21
cdde2.mtx,4,21
cdde3.mtx,4,21
cdde4.mtx,4,21
cdde5.mtx,4,21
cdde6.mtx,4,21
celegans_metabolic.mtx,4,41
celegansneural.mtx,4,108
cep1.mtx,4,9
ch5-5-b2.mtx,4,130
ch5-5-b3.mtx,4,225
ch6-6-b2.mtx,4,319
ch6-6-b5.mtx,4,10
ch7-6-b1.mtx,4,42
ch7-7-b1.mtx,4,50
ch7-8-b1.mtx,4,56
ch7-9-b1.mtx,4,64
ch8-8-b1.mtx,4,64
Chebyshev1.mtx,4,15
Chem97ZtZ.mtx,4,2
circuit204.mtx,4,51
circuit_2.mtx,4,39
cis-n4c6-b2.mtx,4,173
Cities.mtx,4,46
ck400.mtx,4,22
ck656.mtx,4,22
cr42.mtx,4,40
cryg2500.mtx,4,19
CSphd.mtx,4,9
D_10.mtx,4,380
D_11.mtx,4,140
D_5.mtx,4,96
D_6.mtx,4,353
de063155.mtx,4,106
de063157.mtx,4,100
de080285.mtx,4,106
delaunay_n10.mtx,4,26
delaunay_n11.mtx,4,27
diag.mtx,4,11
DK01R.mtx,4,51
dw1024.mtx,4,24
dw2048.mtx,4,24
dw256A.mtx,4,20
dw256B.mtx,4,20
dwa512.mtx,4,20
dwg961a.mtx,4,18
dwg961b.mtx,4,58
dwt_1005.mtx,4,65
dwt_1007.mtx,4,38
dwt_1242.mtx,4,41
dwt_193.mtx,4,82
dwt_307.mtx,4,34
dwt_310.mtx,4,29
dwt_346.mtx,4,62
dwt_361.mtx,4,35
dwt_419.mtx,4,35
dwt_492.mtx,4,21
dwt_503.mtx,4,65
dwt_512.mtx,4,41
dwt_592.mtx,4,37
dwt_607.mtx,4,44
dwt_758.mtx,4,32
dwt_869.mtx,4,38
dwt_878.mtx,4,42
dwt_918.mtx,4,36
dwt_992.mtx,4,83
ego-facebook.edges,4,8
email.mtx,4,209
EPA.mtx,4,167
epb0.mtx,4,14
Erdos02.mtx,4,112
Erdos971.mtx,4,59
Erdos972.mtx,4,105
Erdos981.mtx,4,59
Erdos982.mtx,4,103
Erdos991.mtx,4,60
Erdos992.mtx,4,107
eris1176.mtx,4,80
EVA.mtx,4,22
EX1.mtx,4,350
ex21.mtx,4,137
EX2.mtx,4,354
ex32.mtx,4,72
filter2D.mtx,4,31
flower_7_1.mtx,4,82
flower_8_1.mtx,4,89
foodweb-baydry.edges,4,103
foodweb-baywet.edges,4,104
fpga_dcop_01.mtx,4,20
fpga_dcop_02.mtx,4,20
fpga_dcop_03.mtx,4,20
fpga_dcop_04.mtx,4,20
fpga_dcop_05.mtx,4,19
fpga_dcop_06.mtx,4,20
fpga_dcop_07.mtx,4,20
fpga_dcop_08.mtx,4,20
fpga_dcop_09.mtx,4,20
fpga_dcop_10.mtx,4,16
fpga_dcop_11.mtx,4,20
fpga_dcop_12.mtx,4,20
fpga_dcop_13.mtx,4,20
fpga_dcop_14.mtx,4,20
fpga_dcop_15.mtx,4,20
fpga_dcop_16.mtx,4,20
fpga_dcop_17.mtx,4,20
fpga_dcop_18.mtx,4,20
fpga_dcop_19.mtx,4,20
fpga_dcop_20.mtx,4,20
fpga_dcop_21.mtx,4,20
fpga_dcop_22.mtx,4,20
fpga_dcop_23.mtx,4,20
fpga_dcop_24.mtx,4,20
fpga_dcop_25.mtx,4,20
fpga_dcop_26.mtx,4,20
fpga_dcop_27.mtx,4,20
fpga_dcop_28.mtx,4,20
fpga_dcop_29.mtx,4,20
fpga_dcop_30.mtx,4,20
fpga_dcop_31.mtx,4,20
fpga_dcop_32.mtx,4,20
fpga_dcop_33.mtx,4,20
fpga_dcop_34.mtx,4,20
fpga_dcop_35.mtx,4,20
fpga_dcop_36.mtx,4,20
fpga_dcop_37.mtx,4,20
fpga_dcop_38.mtx,4,20
fpga_dcop_39.mtx,4,20
fpga_dcop_40.mtx,4,20
fpga_dcop_41.mtx,4,20
fpga_dcop_42.mtx,4,20
fpga_dcop_43.mtx,4,20
fpga_dcop_44.mtx,4,20
fpga_dcop_45.mtx,4,20
fpga_dcop_46.mtx,4,20
fpga_dcop_47.mtx,4,20
fpga_dcop_48.mtx,4,20
fpga_dcop_49.mtx,4,20
fpga_dcop_50.mtx,4,20
fpga_dcop_51.mtx,4,20
fpga_trans_01.mtx,4,17
fpga_trans_02.mtx,4,17
Franz1.mtx,4,151
fs_541_1.mtx,4,51
fs_541_2.mtx,4,51
fs_541_3.mtx,4,51
fs_541_4.mtx,4,51
fs_680_1.mtx,4,26
fs_680_2.mtx,4,26
fs_680_3.mtx,4,26
fs_760_1.mtx,4,71
fs_760_2.mtx,4,71
fs_760_3.mtx,4,71
G11.mtx,4,19
G12.mtx,4,19
G13.mtx,4,19
G14.mtx,4,152
G15.mtx,4,142
G16.mtx,4,148
G17.mtx,4,142
G18.mtx,4,152
G19.mtx,4,142
G20.mtx,4,148
G21.mtx,4,142
G32.mtx,4,19
G33.mtx,4,20
G34.mtx,4,19
G43.mtx,4,671
G44.mtx,4,665
G45.mtx,4,674
G46.mtx,4,674
G47.mtx,4,663
G48.mtx,4,25
G49.mtx,4,19
G50.mtx,4,20
G51.mtx,4,167
G52.mtx,4,175
G53.mtx,4,170
G54.mtx,4,166
G57.mtx,4,24
gams60am.mtx,4,9
gas11.mtx,4,99
GD00_c.mtx,4,24
GD06_Java.mtx,4,147
GD96_a.mtx,4,22
GL6_D_10.mtx,4,133
GL6_D_6.mtx,4,163
GL6_D_7.mtx,4,365
GL6_D_8.mtx,4,404
GL6_D_9.mtx,4,275
GL7d11.mtx,4,38
GL7d26.mtx,4,180
gr_30_30.mtx,4,41
gre_1107.mtx,4,111
gre_343.mtx,4,34
gre_512.mtx,4,40
grid2_dual.mtx,4,21
grid2.mtx,4,17
Harvard500.mtx,4,39
hor_131.mtx,4,63
IG5-8.mtx,4,110
IG5-9.mtx,4,221
iiasa.mtx,4,28
illc1033.mtx,4,60
illc1850.mtx,4,207
impcol_d.mtx,4,43
impcol_e.mtx,4,75
init_adder1.mtx,4,30
iprob.mtx,4,2
jagmesh1.mtx,4,28
jagmesh2.mtx,4,31
jagmesh3.mtx,4,30
jagmesh4.mtx,4,26
jagmesh5.mtx,4,28
jagmesh6.mtx,4,27
jagmesh7.mtx,4,27
jagmesh8.mtx,4,26
jagmesh9.mtx,4,30
jazz.mtx,4,111
Journals.mtx,4,109
jpwh_991.mtx,4,51
kneser_6_2_1.mtx,4,136
l9.mtx,4,102
laser.mtx,4,6
L.mtx,4,18
lns_511.mtx,4,40
lnsp_511.mtx,4,39
lp_agg2.mtx,4,156
lp_agg3.mtx,4,159
lp_agg.mtx,4,86
lp_bandm.mtx,4,130
lp_beaconfd.mtx,4,72
lp_bnl1.mtx,4,125
lp_bore3d.mtx,4,75
lp_brandy.mtx,4,89
lp_capri.mtx,4,117
lp_degen2.mtx,4,162
lp_e226.mtx,4,97
lp_etamacro.mtx,4,91
lp_fffff800.mtx,4,245
lp_finnis.mtx,4,57
lp_fit1p.mtx,4,31
lp_ganges.mtx,4,177
lp_gfrd_pnc.mtx,4,43
lp_grow15.mtx,4,191
lp_grow22.mtx,4,213
lp_grow7.mtx,4,110
lpi_bgdbg1.mtx,4,57
lpi_bgetam.mtx,4,91
lpi_chemcom.mtx,4,61
lpi_cplex2.mtx,4,54
lpi_klein2.mtx,4,67
lpi_mondou2.mtx,4,33
lpi_pang.mtx,4,113
lpi_pilot4i.mtx,4,172
lpi_qual.mtx,4,110
lpi_reactor.mtx,4,88
lpi_refinery.mtx,4,110
lp_israel.mtx,4,75
lpi_vol1.mtx,4,110
lp_ken_07.mtx,4,73
lp_lotfi.mtx,4,59
lp_modszk1.mtx,4,67
lp_nug05.mtx,4,128
lp_nug06.mtx,4,218
lp_nug07.mtx,4,330
lp_nug08.mtx,4,461
lp_perold.mtx,4,207
lp_pilot4.mtx,4,172
lp_pilot_we.mtx,4,133
lp_qap8.mtx,4,446
lp_scagr25.mtx,4,61
lp_scfxm1.mtx,4,117
lp_scfxm2.mtx,4,160
lp_scfxm3.mtx,4,175
lp_scorpion.mtx,4,91
lp_scrs8.mtx,4,79
lp_scsd1.mtx,4,73
lp_scsd6.mtx,4,108
lp_scsd8.mtx,4,164
lp_sctap1.mtx,4,63
lp_sctap2.mtx,4,106
lp_sctap3.mtx,4,114
lp_share1b.mtx,4,69
lp_shell.mtx,4,68
lp_ship04l.mtx,4,70
lp_ship04s.mtx,4,66
lp_ship08s.mtx,4,102
lp_ship12s.mtx,4,121
lp_sierra.mtx,4,80
lp_stair.mtx,4,167
lp_standata.mtx,4,55
lp_standgub.mtx,4,56
lp_standmps.mtx,4,72
lp_stocfor2.mtx,4,160
lp_tuff.mtx,4,111
lp_vtp_base.mtx,4,72
lshp1009.mtx,4,31
lshp1270.mtx,4,32
lshp1561.mtx,4,31
lshp1882.mtx,4,32
lshp2233.mtx,4,33
lshp2614.mtx,4,33
lshp3025.mtx,4,32
lshp_406.mtx,4,28
lshp_577.mtx,4,29
lshp_778.mtx,4,29
lund_a.mtx,4,57
lund_b.mtx,4,58
lung1.mtx,4,14
M20PI_n1.mtx,4,6
M20PI_n.mtx,4,6
M40PI_n1.mtx,4,6
M40PI_n.mtx,4,6
M80PI_n1.mtx,4,6
M80PI_n.mtx,4,6
maayan-faa.edges,4,57
maayan-figeys.edges,4,113
maayan-foodweb.edges,4,68
maayan-Stelzl.edges,4,71
maayan-vidal.edges,4,127
mahindas.mtx,4,153
Maragal_2.mtx,4,138
mcca.mtx,4,57
mhd3200b.mtx,4,14
mhda416.mtx,4,79
minnesota.mtx,4,10
mk10-b1.mtx,4,46
mk10-b2.mtx,4,401
mk10-b4.mtx,4,11
mk11-b1.mtx,4,56
mk12-b1.mtx,4,66
mk9-b2.mtx,4,219
mk9-b3.mtx,4,196
model1.mtx,4,130
model2.mtx,4,163
moreno_mac.edges,4,57
moreno_names.edges,4,178
moreno_oz.edges,4,125
moreno_propro.edges,4,29
n2c6-b2.mtx,4,87
n2c6-b3.mtx,4,290
n2c6-b9.mtx,4,124
n3c5-b4.mtx,4,123
n3c5-b5.mtx,4,123
n3c6-b10.mtx,4,335
n3c6-b2.mtx,4,87
n3c6-b3.mtx,4,290
n4c5-b10.mtx,4,66
n4c5-b2.mtx,4,87
n4c5-b3.mtx,4,284
n4c5-b9.mtx,4,333
n4c6-b2.mtx,4,173
nemsafm.mtx,4,37
nemscem.mtx,4,58
netscience.mtx,4,20
netz4504_dual.mtx,4,18
netz4504.mtx,4,9
nnc1374.mtx,4,29
nnc666.mtx,4,26
nos2.mtx,4,11
nos3.mtx,4,88
nos5.mtx,4,123
nos6.mtx,4,16
nos7.mtx,4,35
NotreDame_yeast.mtx,4,30
nsic.mtx,4,112
olm1000.mtx,4,9
olm2000.mtx,4,9
olm5000.mtx,4,9
opsahl-powergrid.edges,4,17
opsahl-ucforum.edges,4,273
orsirr_1.mtx,4,48
orsirr_2.mtx,4,46
orsreg_1.mtx,4,40
p0201.mtx,4,53
p0282.mtx,4,47
p0291.mtx,4,67
p0548.mtx,4,22
p2756.mtx,4,38
pde2961.mtx,4,23
pde900.mtx,4,15
Pd.mtx,4,11
Pd_rhs.mtx,4,25
plat362.mtx,4,77
plsk1919.mtx,4,24
poisson2D.mtx,4,25
poli.mtx,4,15
pores_2.mtx,4,91
pores_3.mtx,4,37
power.mtx,4,18
problem1.mtx,4,28
progas.mtx,4,324
qh1484.mtx,4,13
qh768.mtx,4,15
qh882.mtx,4,14
qiulp.mtx,4,41
QRpivot.mtx,4,230
radoslaw_email.edges,4,93
rail_1357.mtx,4,28
rajat02.mtx,4,15
rajat04.mtx,4,29
rajat12.mtx,4,34
rajat19.mtx,4,16
rdb1250l.mtx,4,27
rdb1250.mtx,4,27
rdb2048.mtx,4,28
rdb2048_noL.mtx,4,28
rdb3200l.mtx,4,30
rdb450l.mtx,4,28
rdb450.mtx,4,28
rdb800l.mtx,4,22
rdb968.mtx,4,24
rel6.mtx,4,129
relat5.mtx,4,30
relat6.mtx,4,126
Roget.mtx,4,162
rosen7.mtx,4,30
rotor2.mtx,4,74
rw496.mtx,4,30
S20PI_n1.mtx,4,6
S20PI_n.mtx,4,6
S40PI_n1.mtx,4,6
S40PI_n.mtx,4,6
S80PI_n1.mtx,4,6
S80PI_n.mtx,4,6
saylr3.mtx,4,24
saylr4.mtx,4,44
scagr7-2c.mtx,4,56
scrs8-2b.mtx,4,44
scrs8-2c.mtx,4,44
sherman1.mtx,4,24
sherman3.mtx,4,40
sherman4.mtx,4,25
shl_0.mtx,4,29
shl_200.mtx,4,31
shl_400.mtx,4,34
Si2.mtx,4,460
Sieber.mtx,4,12
SmaGri.mtx,4,139
small.mtx,4,73
sociopatterns-hypertext.edges,4,86
sociopatterns-infectious.edges,4,109
spiral.mtx,4,84
sstmodel.mtx,4,64
steam1.mtx,4,68
steam2.mtx,4,87
str_0.mtx,4,133
str_200.mtx,4,163
str_400.mtx,4,162
str_600.mtx,4,178
stufe.mtx,4,17
subelj_euroroad.edges,4,13
swang1.mtx,4,33
swang2.mtx,4,33
TF11.mtx,4,135
TF12.mtx,4,304
tols1090.mtx,4,19
tols2000.mtx,4,19
tols340.mtx,4,19
tols4000.mtx,4,19
tols90.mtx,4,19
Trec10.mtx,4,136
Trec9.mtx,4,46
Trefethen_200b.mtx,4,141
Trefethen_200.mtx,4,141
Trefethen_300.mtx,4,206
Trefethen_500.mtx,4,314
Trefethen_700.mtx,4,429
tub1000.mtx,4,10
ukerbe1_dual.mtx,4,18
ukerbe1.mtx,4,9
uk.mtx,4,14
USAir97.mtx,4,53
USpowerGrid.mtx,4,18
utm300.mtx,4,87
wang1.mtx,4,46
wang2.mtx,4,46
watt_1.mtx,4,41
watt_2.mtx,4,40
1138_bus.mtx,5,19
130bit.mtx,5,338
685_bus.mtx,5,25
abb313.mtx,5,108
add20.mtx,5,67
add32.mtx,5,22
adder_dcop_01.mtx,5,40
adder_dcop_02.mtx,5,38
adder_dcop_03.mtx,5,39
adder_dcop_04.mtx,5,35
adder_dcop_05.mtx,5,39
adder_dcop_06.mtx,5,38
adder_dcop_07.mtx,5,38
adder_dcop_08.mtx,5,40
adder_dcop_09.mtx,5,40
adder_dcop_10.mtx,5,41
adder_dcop_11.mtx,5,39
adder_dcop_12.mtx,5,38
adder_dcop_13.mtx,5,37
adder_dcop_14.mtx,5,38
adder_dcop_15.mtx,5,38
adder_dcop_16.mtx,5,38
adder_dcop_17.mtx,5,38
adder_dcop_18.mtx,5,38
adder_dcop_19.mtx,5,38
adder_dcop_20.mtx,5,38
adder_dcop_21.mtx,5,38
adder_dcop_22.mtx,5,38
adder_dcop_23.mtx,5,38
adder_dcop_24.mtx,5,38
adder_dcop_25.mtx,5,38
adder_dcop_26.mtx,5,38
adder_dcop_27.mtx,5,38
adder_dcop_28.mtx,5,38
adder_dcop_29.mtx,5,38
adder_dcop_30.mtx,5,38
adder_dcop_31.mtx,5,38
adder_dcop_32.mtx,5,38
adder_dcop_33.mtx,5,38
adder_dcop_34.mtx,5,38
adder_dcop_35.mtx,5,38
adder_dcop_36.mtx,5,38
adder_dcop_37.mtx,5,38
adder_dcop_38.mtx,5,38
adder_dcop_39.mtx,5,38
adder_dcop_40.mtx,5,38
adder_dcop_41.mtx,5,38
adder_dcop_42.mtx,5,38
adder_dcop_43.mtx,5,38
adder_dcop_44.mtx,5,37
adder_dcop_45.mtx,5,38
adder_dcop_46.mtx,5,38
adder_dcop_47.mtx,5,38
adder_dcop_48.mtx,5,38
adder_dcop_49.mtx,5,38
adder_dcop_50.mtx,5,38
adder_dcop_51.mtx,5,38
adder_dcop_52.mtx,5,38
adder_dcop_53.mtx,5,38
adder_dcop_54.mtx,5,38
adder_dcop_55.mtx,5,38
adder_dcop_56.mtx,5,38
adder_dcop_57.mtx,5,38
adder_dcop_58.mtx,5,38
adder_dcop_59.mtx,5,38
adder_dcop_60.mtx,5,38
adder_dcop_61.mtx,5,38
adder_dcop_62.mtx,5,38
adder_dcop_63.mtx,5,38
adder_dcop_64.mtx,5,38
adder_dcop_65.mtx,5,38
adder_dcop_66.mtx,5,38
adder_dcop_67.mtx,5,38
adder_dcop_68.mtx,5,38
adder_dcop_69.mtx,5,38
adder_trans_01.mtx,5,39
adder_trans_02.mtx,5,39
arenas-jazz.edges,5,120
arenas-meta.edges,5,46
ash608.mtx,5,74
ash958.mtx,5,84
b2_ss.mtx,5,302
bcspwr06.mtx,5,16
bcspwr07.mtx,5,15
bcspwr08.mtx,5,19
bcspwr09.mtx,5,20
bcspwr10.mtx,5,26
bcsstk02.mtx,5,66
bcsstk04.mtx,5,77
bcsstk05.mtx,5,69
bcsstk06.mtx,5,120
bcsstk07.mtx,5,120
bcsstk08.mtx,5,183
bcsstk09.mtx,5,186
bcsstk19.mtx,5,44
bcsstk20.mtx,5,20
bcsstm07.mtx,5,119
bcsstm12.mtx,5,110
bcsstm13.mtx,5,321
bcsstm35.mtx,5,6
bcsstm38.mtx,5,15
b_dyn.mtx,5,300
bfwa398.mtx,5,54
bfwa782.mtx,5,68
bfwb398.mtx,5,48
bfwb782.mtx,5,62
bibd_11_5.mtx,5,56
bibd_12_4.mtx,5,66
bibd_12_5.mtx,5,67
bibd_15_3.mtx,5,102
bibd_17_3.mtx,5,133
bibd_9_5.mtx,5,36
blckhole.mtx,5,46
bp_0.mtx,5,178
bp_1000.mtx,5,310
bp_1200.mtx,5,316
bp_1400.mtx,5,333
bp_1600.mtx,5,326
bp_200.mtx,5,239
bp_400.mtx,5,255
bp_600.mtx,5,280
bp_800.mtx,5,301
bwm2000.mtx,5,11
c-18.mtx,5,112
c-19.mtx,5,187
c-20.mtx,5,153
ca-CSphd.mtx,5,13
ca-Erdos992.mtx,5,146
cage7.mtx,5,99
cage8.mtx,5,273
cage.mtx,5,274
can_1054.mtx,5,92
can_1072.mtx,5,93
can_256.mtx,5,57
can_268.mtx,5,70
can_292.mtx,5,44
can_445.mtx,5,62
can_634.mtx,5,95
can_715.mtx,5,55
can_838.mtx,5,99
cat_ears_2_4.mtx,5,436
cavity01.mtx,5,106
cavity02.mtx,5,106
cavity03.mtx,5,106
cavity04.mtx,5,106
cavity15.mtx,5,43
cdde1.mtx,5,26
cdde2.mtx,5,26
cdde3.mtx,5,26
cdde4.mtx,5,26
cdde5.mtx,5,26
cdde6.mtx,5,26
celegans_metabolic.mtx,5,46
celegansneural.mtx,5,122
cep1.mtx,5,9
ch5-5-b2.mtx,5,160
ch5-5-b3.mtx,5,296
ch6-6-b2.mtx,5,375
ch6-6-b5.mtx,5,13
ch7-6-b1.mtx,5,42
ch7-7-b1.mtx,5,50
ch7-8-b1.mtx,5,56
ch7-9-b1.mtx,5,64
ch8-8-b1.mtx,5,64
Chebyshev1.mtx,5,17
Chem97ZtZ.mtx,5,2
circuit204.mtx,5,80
circuit_2.mtx,5,53
cis-n4c6-b2.mtx,5,198
Cities.mtx,5,46
ck400.mtx,5,25
ck656.mtx,5,26
cr42.mtx,5,43
cryg2500.mtx,5,26
CSphd.mtx,5,13
D_10.mtx,5,408
D_11.mtx,5,151
D_5.mtx,5,100
D_6.mtx,5,381
de063155.mtx,5,184
de063157.mtx,5,191
de080285.mtx,5,173
delaunay_n10.mtx,5,36
delaunay_n11.mtx,5,37
diag.mtx,5,16
DK01R.mtx,5,57
dw1024.mtx,5,35
dw2048.mtx,5,35
dw256A.mtx,5,29
dw256B.mtx,5,31
dwa512.mtx,5,29
dwg961a.mtx,5,23
dwg961b.mtx,5,83
dwt_1005.mtx,5,81
dwt_1007.mtx,5,53
dwt_1242.mtx,5,58
dwt_193.mtx,5,102
dwt_307.mtx,5,45
dwt_310.mtx,5,38
dwt_346.mtx,5,82
dwt_361.mtx,5,46
dwt_419.mtx,5,48
dwt_492.mtx,5,25
dwt_503.mtx,5,84
dwt_512.mtx,5,52
dwt_592.mtx,5,52
dwt_607.mtx,5,65
dwt_758.mtx,5,43
dwt_869.mtx,5,51
dwt_878.mtx,5,53
dwt_918.mtx,5,47
dwt_992.mtx,5,119
ego-facebook.edges,5,8
email.mtx,5,258
EPA.mtx,5,221
epb0.mtx,5,16
Erdos02.mtx,5,157
Erdos971.mtx,5,76
Erdos972.mtx,5,142
Erdos981.mtx,5,73
Erdos982.mtx,5,144
Erdos991.mtx,5,75
Erdos992.mtx,5,146
eris1176.mtx,5,80
EVA.mtx,5,26
EX1.mtx,5,406
ex21.mtx,5,179
EX2.mtx,5,407
ex32.mtx,5,101
filter2D.mtx,5,41
flower_7_1.mtx,5,123
flower_8_1.mtx,5,145
foodweb-baydry.edges,5,108
foodweb-baywet.edges,5,105
fpga_dcop_01.mtx,5,29
fpga_dcop_02.mtx,5,29
fpga_dcop_03.mtx,5,29
fpga_dcop_04.mtx,5,29
fpga_dcop_05.mtx,5,29
fpga_dcop_06.mtx,5,29
fpga_dcop_07.mtx,5,28
fpga_dcop_08.mtx,5,29
fpga_dcop_09.mtx,5,29
fpga_dcop_10.mtx,5,29
fpga_dcop_11.mtx,5,29
fpga_dcop_12.mtx,5,29
fpga_dcop_13.mtx,5,29
fpga_dcop_14.mtx,5,29
fpga_dcop_15.mtx,5,29
fpga_dcop_16.mtx,5,29
fpga_dcop_17.mtx,5,29
fpga_dcop_18.mtx,5,29
fpga_dcop_19.mtx,5,29
fpga_dcop_20.mtx,5,29
fpga_dcop_21.mtx,5,29
fpga_dcop_22.mtx,5,29
fpga_dcop_23.mtx,5,29
fpga_dcop_24.mtx,5,29
fpga_dcop_25.mtx,5,29
fpga_dcop_26.mtx,5,29
fpga_dcop_27.mtx,5,29
fpga_dcop_28.mtx,5,29
fpga_dcop_29.mtx,5,29
fpga_dcop_30.mtx,5,29
fpga_dcop_31.mtx,5,29
fpga_dcop_32.mtx,5,29
fpga_dcop_33.mtx,5,29
fpga_dcop_34.mtx,5,29
fpga_dcop_35.mtx,5,29
fpga_dcop_36.mtx,5,29
fpga_dcop_37.mtx,5,29
fpga_dcop_38.mtx,5,29
fpga_dcop_39.mtx,5,29
fpga_dcop_40.mtx,5,29
fpga_dcop_41.mtx,5,29
fpga_dcop_42.mtx,5,29
fpga_dcop_43.mtx,5,29
fpga_dcop_44.mtx,5,29
fpga_dcop_45.mtx,5,29
fpga_dcop_46.mtx,5,29
fpga_dcop_47.mtx,5,29
fpga_dcop_48.mtx,5,29
fpga_dcop_49.mtx,5,29
fpga_dcop_50.mtx,5,29
fpga_dcop_51.mtx,5,29
fpga_trans_01.mtx,5,20
fpga_trans_02.mtx,5,20
Franz1.mtx,5,297
fs_541_1.mtx,5,99
fs_541_2.mtx,5,99
fs_541_3.mtx,5,99
fs_541_4.mtx,5,99
fs_680_1.mtx,5,31
fs_680_2.mtx,5,31
fs_680_3.mtx,5,31
fs_760_1.mtx,5,101
fs_760_2.mtx,5,101
fs_760_3.mtx,5,101
G11.mtx,5,26
G12.mtx,5,26
G13.mtx,5,27
G14.mtx,5,199
G15.mtx,5,198
G16.mtx,5,197
G17.mtx,5,187
G18.mtx,5,199
G19.mtx,5,198
G20.mtx,5,197
G21.mtx,5,187
G32.mtx,5,27
G33.mtx,5,27
G34.mtx,5,27
G43.mtx,5,724
G44.mtx,5,727
G45.mtx,5,722
G46.mtx,5,727
G47.mtx,5,715
G48.mtx,5,28
G49.mtx,5,28
G50.mtx,5,28
G51.mtx,5,225
G52.mtx,5,236
G53.mtx,5,234
G54.mtx,5,230
G57.mtx,5,28
gams60am.mtx,5,10
gas11.mtx,5,160
GD00_c.mtx,5,29
GD06_Java.mtx,5,176
GD96_a.mtx,5,29
GL6_D_10.mtx,5,146
GL6_D_6.mtx,5,175
GL6_D_7.mtx,5,401
GL6_D_8.mtx,5,439
GL6_D_9.mtx,5,297
GL7d11.mtx,5,50
GL7d26.mtx,5,211
gr_30_30.mtx,5,55
gre_1107.mtx,5,186
gre_343.mtx,5,66
gre_512.mtx,5,75
grid2_dual.mtx,5,26
grid2.mtx,5,27
Harvard500.mtx,5,53
hor_131.mtx,5,86
IG5-8.mtx,5,123
IG5-9.mtx,5,258
iiasa.mtx,5,38
illc1033.mtx,5,78
illc1850.mtx,5,301
impcol_d.mtx,5,59
impcol_e.mtx,5,83
init_adder1.mtx,5,40
iprob.mtx,5,2
jagmesh1.mtx,5,37
jagmesh2.mtx,5,43
jagmesh3.mtx,5,40
jagmesh4.mtx,5,35
jagmesh5.mtx,5,38
jagmesh6.mtx,5,35
jagmesh7.mtx,5,34
jagmesh8.mtx,5,36
jagmesh9.mtx,5,40
jazz.mtx,5,118
Journals.mtx,5,110
jpwh_991.mtx,5,83
kneser_6_2_1.mtx,5,185
l9.mtx,5,143
laser.mtx,5,8
L.mtx,5,27
lns_511.mtx,5,59
lnsp_511.mtx,5,58
lp_agg2.mtx,5,186
lp_agg3.mtx,5,192
lp_agg.mtx,5,112
lp_bandm.mtx,5,158
lp_beaconfd.mtx,5,100
lp_bnl1.mtx,5,182
lp_bore3d.mtx,5,93
lp_brandy.mtx,5,94
lp_capri.mtx,5,137
lp_degen2.mtx,5,206
lp_e226.mtx,5,175
lp_etamacro.mtx,5,129
lp_fffff800.mtx,5,291
lp_finnis.mtx,5,91
lp_fit1p.mtx,5,33
lp_ganges.mtx,5,273
lp_gfrd_pnc.mtx,5,73
lp_grow15.mtx,5,208
lp_grow22.mtx,5,278
lp_grow7.mtx,5,125
lpi_bgdbg1.mtx,5,83
lpi_bgetam.mtx,5,129
lpi_chemcom.mtx,5,88
lpi_cplex2.mtx,5,84
lpi_klein2.mtx,5,67
lpi_mondou2.mtx,5,46
lpi_pang.mtx,5,176
lpi_pilot4i.mtx,5,230
lpi_qual.mtx,5,133
lpi_reactor.mtx,5,122
lpi_refinery.mtx,5,130
lp_israel.mtx,5,82
lpi_vol1.mtx,5,133
lp_ken_07.mtx,5,144
lp_lotfi.mtx,5,75
lp_modszk1.mtx,5,114
lp_nug05.mtx,5,143
lp_nug06.mtx,5,252
lp_nug07.mtx,5,399
lp_nug08.mtx,5,599
lp_perold.mtx,5,275
lp_pilot4.mtx,5,230
lp_pilot_we.mtx,5,232
lp_qap8.mtx,5,591
lp_scagr25.mtx,5,94
lp_scfxm1.mtx,5,159
lp_scfxm2.mtx,5,258
lp_scfxm3.mtx,5,290
lp_scorpion.mtx,5,116
lp_scrs8.mtx,5,116
lp_scsd1.mtx,5,73
lp_scsd6.mtx,5,120
lp_scsd8.mtx,5,209
lp_sctap1.mtx,5,84
lp_sctap2.mtx,5,164
lp_sctap3.mtx,5,194
lp_share1b.mtx,5,76
lp_shell.mtx,5,102
lp_ship04l.mtx,5,70
lp_ship04s.mtx,5,67
lp_ship08s.mtx,5,122
lp_ship12s.mtx,5,165
lp_sierra.mtx,5,160
lp_stair.mtx,5,225
lp_standata.mtx,5,85
lp_standgub.mtx,5,91
lp_standmps.mtx,5,126
lp_stocfor2.mtx,5,327
lp_tuff.mtx,5,118
lp_vtp_base.mtx,5,93
lshp1009.mtx,5,43
lshp1270.mtx,5,42
lshp1561.mtx,5,43
lshp1882.mtx,5,46
lshp2233.mtx,5,46
lshp2614.mtx,5,44
lshp3025.mtx,5,43
lshp_406.mtx,5,37
lshp_577.mtx,5,39
lshp_778.mtx,5,39
lund_a.mtx,5,67
lund_b.mtx,5,67
lung1.mtx,5,17
M20PI_n1.mtx,5,7
M20PI_n.mtx,5,7
M40PI_n1.mtx,5,7
M40PI_n.mtx,5,7
M80PI_n1.mtx,5,7
M80PI_n.mtx,5,7
maayan-faa.edges,5,86
maayan-figeys.edges,5,146
maayan-foodweb.edges,5,75
maayan-Stelzl.edges,5,87
maayan-vidal.edges,5,166
mahindas.mtx,5,237
Maragal_2.mtx,5,168
mcca.mtx,5,60
mhd3200b.mtx,5,17
mhda416.mtx,5,94
minnesota.mtx,5,12
mk10-b1.mtx,5,46
mk10-b2.mtx,5,493
mk10-b4.mtx,5,13
mk11-b1.mtx,5,56
mk12-b1.mtx,5,66
mk9-b2.mtx,5,273
mk9-b3.mtx,5,365
model1.mtx,5,160
model2.mtx,5,179
moreno_mac.edges,5,57
moreno_names.edges,5,218
moreno_oz.edges,5,142
moreno_propro.edges,5,39
n2c6-b2.mtx,5,99
n2c6-b3.mtx,5,376
n2c6-b9.mtx,5,149
n3c5-b4.mtx,5,138
n3c5-b5.mtx,5,138
n3c6-b10.mtx,5,429
n3c6-b2.mtx,5,99
n3c6-b3.mtx,5,376
n4c5-b10.mtx,5,93
n4c5-b2.mtx,5,99
n4c5-b3.mtx,5,376
n4c5-b9.mtx,5,422
n4c6-b2.mtx,5,198
nemsafm.mtx,5,51
nemscem.mtx,5,96
netscience.mtx,5,20
netz4504_dual.mtx,5,24
netz4504.mtx,5,15
nnc1374.mtx,5,40
nnc666.mtx,5,35
nos2.mtx,5,13
nos3.mtx,5,120
nos5.mtx,5,174
nos6.mtx,5,23
nos7.mtx,5,63
NotreDame_yeast.mtx,5,44
nsic.mtx,5,128
olm1000.mtx,5,10
olm2000.mtx,5,10
olm5000.mtx,5,10
opsahl-powergrid.edges,5,23
opsahl-ucforum.edges,5,307
orsirr_1.mtx,5,74
orsirr_2.mtx,5,73
orsreg_1.mtx,5,72
p0201.mtx,5,57
p0282.mtx,5,49
p0291.mtx,5,76
p0548.mtx,5,26
p2756.mtx,5,43
pde2961.mtx,5,28
pde900.mtx,5,26
Pd.mtx,5,13
Pd_rhs.mtx,5,30
plat362.mtx,5,102
plsk1919.mtx,5,32
poisson2D.mtx,5,34
poli.mtx,5,19
pores_2.mtx,5,129
pores_3.mtx,5,50
power.mtx,5,24
problem1.mtx,5,36
progas.mtx,5,553
qh1484.mtx,5,17
qh768.mtx,5,18
qh882.mtx,5,18
qiulp.mtx,5,70
QRpivot.mtx,5,313
radoslaw_email.edges,5,95
rail_1357.mtx,5,37
rajat02.mtx,5,18
rajat04.mtx,5,39
rajat12.mtx,5,47
rajat19.mtx,5,17
rdb1250l.mtx,5,43
rdb1250.mtx,5,43
rdb2048.mtx,5,45
rdb2048_noL.mtx,5,45
rdb3200l.mtx,5,45
rdb450l.mtx,5,38
rdb450.mtx,5,38
rdb800l.mtx,5,41
rdb968.mtx,5,41
rel6.mtx,5,135
relat5.mtx,5,31
relat6.mtx,5,133
Roget.mtx,5,223
rosen7.mtx,5,30
rotor2.mtx,5,82
rw496.mtx,5,40
S20PI_n1.mtx,5,7
S20PI_n.mtx,5,7
S40PI_n1.mtx,5,7
S40PI_n.mtx,5,7
S80PI_n1.mtx,5,7
S80PI_n.mtx,5,7
saylr3.mtx,5,36
saylr4.mtx,5,71
scagr7-2c.mtx,5,98
scrs8-2b.mtx,5,62
scrs8-2c.mtx,5,62
sherman1.mtx,5,36
sherman3.mtx,5,71
sherman4.mtx,5,48
shl_0.mtx,5,52
shl_200.mtx,5,51
shl_400.mtx,5,57
Si2.mtx,5,500
Sieber.mtx,5,14
SmaGri.mtx,5,173
small.mtx,5,131
sociopatterns-hypertext.edges,5,89
sociopatterns-infectious.edges,5,142
spiral.mtx,5,98
sstmodel.mtx,5,89
steam1.mtx,5,88
steam2.mtx,5,182
str_0.mtx,5,153
str_200.mtx,5,178
str_400.mtx,5,197
str_600.mtx,5,208
stufe.mtx,5,23
subelj_euroroad.edges,5,16
swang1.mtx,5,44
swang2.mtx,5,44
TF11.mtx,5,155
TF12.mtx,5,347
tols1090.mtx,5,19
tols2000.mtx,5,19
tols340.mtx,5,19
tols4000.mtx,5,19
tols90.mtx,5,19
Trec10.mtx,5,136
Trec9.mtx,5,46
Trefethen_200b.mtx,5,151
Trefethen_200.mtx,5,153
Trefethen_300.mtx,5,224
Trefethen_500.mtx,5,367
Trefethen_700.mtx,5,514
tub1000.mtx,5,12
ukerbe1_dual.mtx,5,25
ukerbe1.mtx,5,15
uk.mtx,5,18
USAir97.mtx,5,55
USpowerGrid.mtx,5,23
utm300.mtx,5,105
wang1.mtx,5,81
wang2.mtx,5,81
watt_1.mtx,5,73
watt_2.mtx,5,73
