test,rad,%,mfcs_forb,mfcs_scat,mfcs_score,mfcs_time,new1_forb,new1_scat,new1_score,new1_time,new2_forb,new2_scat,new2_score,new2_time,tree1_forb,tree1_scat,tree1_score,tree1_time,tree2_forb,tree2_scat,tree2_score,tree2_time,ld_it_forb,ld_it_scat,ld_it_score,ld_it_time,ld_forb,ld_scat,ld_score,ld_time,new_ld_forb,new_ld_scat,new_ld_score,new_ld_time
big/as20000102.txtg,2,100,391,3840,278,0:00.73,0,89,89,0:01.23,0,351,351,0:01.02,0,559,559,0:01.29,0,559,559,0:00.66,0,562,562,0:00.70,0,655,655,0:01.24,-,-,-,TIMEOUT
big/as20000102.txtg,2,20,146,853,79,0:00.06,0,41,41,0:01.05,0,212,212,0:00.72,0,271,271,0:00.09,0,271,271,0:00.06,0,283,283,0:00.06,0,299,299,0:00.18,-,-,-,TIMEOUT
big/cl-12-0.txtg,2,100,0,158,158,0:00.10,0,103,103,0:00.55,0,417,417,0:00.48,0,686,686,0:00.06,0,686,686,0:00.05,0,703,703,0:00.04,0,779,779,0:00.38,0,778,778,9:13.47
big/cl-12-0.txtg,2,20,0,66,66,0:00.03,0,47,47,0:00.46,0,189,189,0:00.20,0,252,252,0:00.03,0,252,252,0:00.03,0,275,275,0:00.03,0,290,290,0:00.08,0,290,290,0:58.13
big/cl-12-1.txtg,2,100,0,159,159,0:00.09,0,107,107,0:00.47,0,414,414,0:00.44,0,695,695,0:00.07,0,695,695,0:00.05,0,711,711,0:00.04,0,789,789,0:00.39,0,787,787,9:40.24
big/cl-12-1.txtg,2,20,0,78,78,0:00.03,0,51,51,0:00.41,0,197,197,0:00.24,0,265,265,0:00.03,0,265,265,0:00.03,0,286,286,0:00.02,0,298,298,0:00.08,0,298,298,0:57.44
big/clh-12-0.txtg,2,100,0,154,154,0:00.11,0,125,125,0:00.51,0,450,450,0:00.72,0,649,649,0:00.05,0,649,649,0:00.04,0,662,662,0:00.03,0,980,980,0:00.27,0,980,980,7:54.69
big/clh-12-0.txtg,2,20,0,101,101,0:00.03,0,74,74,0:00.36,0,270,270,0:00.25,0,327,327,0:00.03,0,327,327,0:00.03,0,351,351,0:00.03,0,375,375,0:00.06,0,374,374,0:57.99
big/clh-12-1.txtg,2,100,0,160,160,0:00.10,0,131,131,0:00.46,0,425,425,0:00.58,0,632,632,0:00.05,0,632,632,0:00.04,0,647,647,0:00.03,0,959,959,0:00.27,0,959,959,7:31.86
big/clh-12-1.txtg,2,20,0,99,99,0:00.03,0,91,91,0:00.32,0,276,276,0:00.24,0,320,320,0:00.02,0,320,320,0:00.02,0,342,342,0:00.02,0,366,366,0:00.06,0,365,365,0:57.02
big/cond-mat.txtg,2,100,0,1418,1418,0:00.84,0,1275,1275,0:08.01,0,1870,1870,0:10.39,0,2793,2793,0:00.87,0,2793,2793,0:00.30,0,2835,2835,0:00.16,0,2924,2924,0:01.09,-,-,-,TIMEOUT
big/cond-mat.txtg,2,20,0,760,760,0:00.21,0,689,689,0:01.64,0,1110,1110,0:02.01,0,1316,1316,0:00.20,0,1316,1316,0:00.11,0,1393,1393,0:00.09,0,1429,1429,0:00.25,-,-,-,TIMEOUT
big/fvs001.txtg,2,100,0,168,168,0:00.12,0,158,158,0:00.82,0,151,151,0:00.61,0,173,173,0:00.72,0,173,173,0:00.21,0,174,174,0:00.50,0,196,196,0:01.15,-,-,-,TIMEOUT
big/fvs001.txtg,2,20,0,93,93,0:00.05,0,76,76,0:00.33,0,149,149,0:00.30,0,129,129,0:00.06,0,129,129,0:00.04,0,141,141,0:00.05,0,165,165,0:00.18,0,165,165,2:07.41
big/fvs022.txtg,2,100,610,6948,419,0:01.36,0,100,100,0:03.35,0,583,583,0:03.09,0,858,858,0:04.03,0,858,858,0:01.58,0,860,860,0:01.99,0,991,991,0:04.42,-,-,-,TIMEOUT
big/fvs022.txtg,2,20,239,1503,103,0:00.12,0,54,54,0:02.57,0,276,276,0:01.94,0,393,393,0:00.25,0,393,393,0:00.13,0,411,411,0:00.15,0,436,436,0:00.58,-,-,-,TIMEOUT
big/fvs040.txtg,2,100,331,4513,417,0:00.96,0,106,106,0:03.44,0,563,563,0:02.62,0,837,837,0:03.28,0,837,837,0:01.46,0,838,838,0:01.67,0,968,968,0:03.91,-,-,-,TIMEOUT
big/fvs040.txtg,2,20,181,1083,29,0:00.11,0,51,51,0:02.59,0,271,271,0:01.89,0,383,383,0:00.19,0,383,383,0:00.12,0,404,404,0:00.12,0,425,425,0:00.52,-,-,-,TIMEOUT
big/fvs045.txtg,2,100,0,1645,1645,0:01.34,0,1929,1929,0:32.46,0,2261,2261,0:16.48,0,2995,2995,0:00.37,0,2995,2995,0:00.23,0,3045,3045,0:00.09,0,4971,4971,0:00.32,-,-,-,TIMEOUT
big/fvs045.txtg,2,20,0,991,991,0:00.20,0,1003,1003,0:03.72,0,1422,1422,0:02.45,0,1482,1482,0:00.13,0,1482,1482,0:00.10,0,1535,1535,0:00.07,0,1654,1654,0:00.13,0,1655,1655,5:52.95
big/fvs074.txtg,2,100,568,6550,418,0:01.20,0,99,99,0:03.24,0,548,548,0:02.54,0,833,833,0:03.55,0,833,833,0:01.43,0,834,834,0:01.75,0,955,955,0:03.85,-,-,-,TIMEOUT
big/fvs074.txtg,2,20,214,1419,94,0:00.10,0,48,48,0:02.87,0,277,277,0:01.76,0,364,364,0:00.22,0,364,364,0:00.12,0,383,383,0:00.13,0,399,399,0:00.51,-,-,-,TIMEOUT
big/fvs080.txtg,2,100,274,2367,81,0:00.45,0,76,76,0:01.03,0,327,327,0:00.93,0,499,499,0:00.78,0,499,499,0:00.37,0,503,503,0:00.38,0,585,585,0:00.87,-,-,-,TIMEOUT
big/fvs080.txtg,2,20,126,684,44,0:00.06,0,38,38,0:00.82,0,186,186,0:00.58,0,241,241,0:00.07,0,241,241,0:00.04,0,255,255,0:00.05,0,267,267,0:00.15,0,267,267,9:04.18
big/hep-th.txtg,2,100,0,1018,1018,0:00.31,0,945,945,0:03.24,0,1234,1234,0:03.59,0,1769,1769,0:00.24,0,1769,1769,0:00.11,0,1781,1781,0:00.06,0,1859,1859,0:00.28,-,-,-,TIMEOUT
big/hep-th.txtg,2,20,0,533,533,0:00.06,0,485,485,0:00.64,0,696,696,0:00.67,0,773,773,0:00.05,0,773,773,0:00.05,0,803,803,0:00.03,0,838,838,0:00.08,0,837,837,2:49.05
big/p2p-Gnutella04.txtg,2,100,0,375,375,0:00.28,0,242,242,0:01.85,0,1174,1174,0:03.43,0,2110,2110,0:00.38,0,2110,2110,0:00.23,0,2140,2140,0:00.14,0,2220,2220,0:01.71,-,-,-,TIMEOUT
big/p2p-Gnutella04.txtg,2,20,0,208,208,0:00.10,0,133,133,0:01.48,0,576,576,0:00.97,0,742,742,0:00.11,0,742,742,0:00.08,0,784,784,0:00.07,0,825,825,0:00.26,-,-,-,TIMEOUT
big/planar10000.txtg,2,100,0,489,489,0:00.19,0,374,374,0:01.17,0,1051,1051,0:02.57,0,1556,1556,0:00.30,0,1556,1556,0:00.14,0,1610,1610,0:00.09,0,1925,1925,0:00.56,-,-,-,TIMEOUT
big/planar10000.txtg,2,20,0,250,250,0:00.06,0,210,210,0:00.51,0,591,591,0:00.67,0,720,720,0:00.07,0,720,720,0:00.05,0,759,759,0:00.05,0,808,808,0:00.14,0,808,808,5:32.26
big/planar12000.txtg,2,100,0,781,781,0:00.28,0,634,634,0:02.12,0,1557,1557,0:04.33,0,2216,2216,0:00.47,0,2216,2216,0:00.19,0,2246,2246,0:00.10,0,2625,2625,0:00.57,-,-,-,TIMEOUT
big/planar12000.txtg,2,20,0,403,403,0:00.08,0,344,344,0:00.58,0,797,797,0:00.93,0,985,985,0:00.10,0,985,985,0:00.06,0,1017,1017,0:00.05,0,1071,1071,0:00.14,0,1071,1071,8:06.20
big/planar15000.txtg,2,100,0,1384,1384,0:00.47,0,1158,1158,0:04.95,0,2248,2248,0:08.67,0,3085,3085,0:00.70,0,3085,3085,0:00.27,0,3102,3102,0:00.11,0,3684,3684,0:00.54,-,-,-,TIMEOUT
big/planar15000.txtg,2,20,0,640,640,0:00.11,0,581,581,0:00.96,0,1169,1169,0:01.66,0,1336,1336,0:00.14,0,1336,1336,0:00.07,0,1362,1362,0:00.05,0,1426,1426,0:00.14,0,1426,1426,9:46.90
big/planar7002.txtg,2,100,0,123,123,0:00.14,0,114,114,0:00.63,0,393,393,0:00.89,0,583,583,0:00.14,0,583,583,0:00.08,0,684,684,0:00.08,0,800,800,0:00.59,-,-,-,TIMEOUT
big/planar7002.txtg,2,20,0,81,81,0:00.05,0,70,70,0:00.53,0,273,273,0:00.36,0,358,358,0:00.05,0,358,358,0:00.04,0,385,385,0:00.04,0,415,415,0:00.13,0,415,415,3:13.89
big/planar8500.txtg,2,100,0,266,266,0:00.14,0,223,223,0:00.80,0,695,695,0:01.41,0,1060,1060,0:00.22,0,1060,1060,0:00.11,0,1131,1131,0:00.09,0,1350,1350,0:00.58,-,-,-,TIMEOUT
big/planar8500.txtg,2,20,0,147,147,0:00.06,0,117,117,0:00.34,0,408,408,0:00.47,0,539,539,0:00.07,0,539,539,0:00.04,0,565,565,0:00.05,0,614,614,0:00.13,0,613,613,4:45.26
big/polblogs.txtg,2,100,306,372,21,0:00.14,1,22,21,0:09.74,0,50,50,0:08.63,0,118,118,0:00.15,0,118,118,0:00.06,0,119,119,0:00.09,0,128,128,0:00.60,0,128,128,3:57.88
big/polblogs.txtg,2,20,172,111,1,0:00.04,3,2,2,0:07.71,0,26,26,0:05.92,0,41,41,0:00.04,0,41,41,0:00.03,0,45,45,0:00.03,0,45,45,0:00.13,0,45,45,0:27.62
big/sb-12-0.txtg,2,100,0,152,152,0:00.12,0,120,120,0:00.74,0,326,326,0:00.58,0,447,447,0:00.06,0,447,447,0:00.05,0,474,474,0:00.05,0,596,596,0:00.29,0,589,589,4:52.81
big/sb-12-0.txtg,2,20,0,77,77,0:00.05,0,59,59,0:00.21,0,205,205,0:00.21,0,239,239,0:00.03,0,239,239,0:00.03,0,268,268,0:00.03,0,292,292,0:00.07,0,293,293,0:40.54
big/sb-12-1.txtg,2,100,0,152,152,0:00.12,0,115,115,0:00.70,0,330,330,0:00.60,0,456,456,0:00.06,0,456,456,0:00.05,0,487,487,0:00.05,0,600,600,0:00.28,0,597,597,4:56.16
big/sb-12-1.txtg,2,20,0,79,79,0:00.04,0,62,62,0:00.23,0,198,198,0:00.19,0,229,229,0:00.03,0,229,229,0:00.03,0,262,262,0:00.03,0,284,284,0:00.07,0,282,282,0:39.49
big/as20000102.txtg,3,100,552,3640,67,0:00.43,1,284,280,0:03.87,1,348,291,0:03.30,0,375,375,0:01.10,0,375,375,0:00.50,0,379,379,0:00.54,0,440,440,0:07.93,-,-,-,TIMEOUT
big/as20000102.txtg,3,20,277,1147,76,0:00.07,1,75,71,0:03.08,0,67,67,0:02.77,0,179,179,0:00.08,0,179,179,0:00.06,0,185,185,0:00.05,0,185,185,0:01.07,-,-,-,TIMEOUT
big/cl-12-0.txtg,3,100,1146,1012,2,0:00.67,0,2,2,0:16.26,0,193,193,0:11.62,0,346,346,0:00.07,0,346,346,0:00.05,0,349,349,0:00.04,0,361,361,0:03.07,-,-,-,TIMEOUT
big/cl-12-0.txtg,3,20,529,312,2,0:00.09,0,2,2,0:09.90,0,78,78,0:07.70,0,124,124,0:00.03,0,124,124,0:00.03,0,134,134,0:00.03,0,138,138,0:00.43,0,140,140,3:01.71
big/cl-12-1.txtg,3,100,976,712,3,0:00.32,0,2,2,0:17.20,0,206,206,0:14.22,0,343,343,0:00.08,0,343,343,0:00.05,0,352,352,0:00.05,0,361,361,0:03.09,-,-,-,TIMEOUT
big/cl-12-1.txtg,3,20,530,330,2,0:00.09,0,12,12,0:16.61,0,88,88,0:10.54,0,134,134,0:00.03,0,134,134,0:00.03,0,142,142,0:00.03,0,148,148,0:00.44,0,147,147,3:14.49
big/clh-12-0.txtg,3,100,286,248,2,0:00.04,0,31,31,0:10.49,0,279,279,0:07.86,0,346,346,0:00.05,0,346,346,0:00.04,0,350,350,0:00.03,0,428,428,0:01.87,-,-,-,TIMEOUT
big/clh-12-0.txtg,3,20,238,179,2,0:00.04,0,14,14,0:07.21,0,161,161,0:04.93,0,188,188,0:00.03,0,188,188,0:00.02,0,199,199,0:00.03,0,216,216,0:00.28,0,219,219,3:26.67
big/clh-12-1.txtg,3,100,743,567,1,0:00.07,0,24,24,0:10.08,0,241,241,0:10.48,0,324,324,0:00.05,0,324,324,0:00.04,0,329,329,0:00.03,0,409,409,0:01.83,-,-,-,TIMEOUT
big/clh-12-1.txtg,3,20,205,153,1,0:00.04,0,26,26,0:08.92,0,142,142,0:05.09,0,190,190,0:00.03,0,190,190,0:00.02,0,204,204,0:00.02,0,221,221,0:00.28,0,223,223,3:15.11
big/cond-mat.txtg,3,100,0,979,979,0:00.34,0,948,948,0:10.14,0,1430,1430,0:11.03,0,1849,1849,0:00.88,0,1849,1849,0:00.30,0,1881,1881,0:00.16,0,1928,1928,0:05.06,-,-,-,TIMEOUT
big/cond-mat.txtg,3,20,0,512,512,0:00.14,0,495,495,0:05.00,0,814,814,0:04.44,0,918,918,0:00.21,0,918,918,0:00.11,0,956,956,0:00.09,0,994,994,0:00.88,-,-,-,TIMEOUT
big/fvs001.txtg,3,100,792,4726,4,0:00.67,0,47,47,0:06.56,0,96,96,0:06.28,0,172,172,0:00.71,0,172,172,0:00.22,0,173,173,0:00.50,0,173,173,0:02.37,-,-,-,TIMEOUT
big/fvs001.txtg,3,20,215,640,3,0:00.06,0,33,33,0:04.83,0,78,78,0:04.23,0,91,91,0:00.06,0,91,91,0:00.04,0,102,102,0:00.05,0,116,116,0:00.42,0,120,120,3:15.78
big/fvs022.txtg,3,100,949,9122,410,0:02.45,1,409,402,0:12.29,1,484,407,0:09.61,0,581,581,0:04.04,0,581,581,0:01.61,0,587,587,0:02.00,0,663,663,0:35.41,-,-,-,TIMEOUT
big/fvs022.txtg,3,20,423,1973,95,0:00.18,1,87,84,0:09.09,0,71,71,0:06.29,0,259,259,0:00.25,0,259,259,0:00.14,0,268,268,0:00.15,0,280,280,0:05.32,-,-,-,TIMEOUT
big/fvs040.txtg,3,100,895,8765,399,0:04.49,1,403,394,0:10.16,1,474,402,0:08.39,0,577,577,0:03.29,0,577,577,0:01.47,0,580,580,0:01.68,0,668,668,0:30.53,-,-,-,TIMEOUT
big/fvs040.txtg,3,20,356,1437,20,0:00.19,1,86,79,0:07.93,1,112,81,0:06.11,0,258,258,0:00.20,0,258,258,0:00.12,0,271,271,0:00.12,0,282,282,0:04.75,-,-,-,TIMEOUT
big/fvs045.txtg,3,100,0,740,740,0:00.62,0,945,945,0:16.28,0,1265,1265,0:08.37,0,1690,1690,0:00.38,0,1690,1690,0:00.23,0,1652,1652,0:00.09,0,2485,2485,0:00.63,-,-,-,TIMEOUT
big/fvs045.txtg,3,20,0,502,502,0:00.15,0,509,509,0:02.43,0,867,867,0:01.55,0,950,950,0:00.14,0,950,950,0:00.09,0,958,958,0:00.06,0,1101,1101,0:00.19,0,1100,1100,8:09.49
big/fvs074.txtg,3,100,897,8707,408,0:01.92,1,409,400,0:12.38,1,490,409,0:08.92,0,571,571,0:03.62,0,571,571,0:01.45,0,576,576,0:01.81,0,649,649,0:30.50,-,-,-,TIMEOUT
big/fvs074.txtg,3,20,379,1470,18,0:00.12,1,90,84,0:09.19,0,85,85,0:07.41,0,241,241,0:00.22,0,241,241,0:00.12,0,251,251,0:00.13,0,260,260,0:04.75,-,-,-,TIMEOUT
big/fvs080.txtg,3,100,541,3848,78,0:00.98,1,240,233,0:03.25,1,296,239,0:02.44,0,342,342,0:00.78,0,342,342,0:00.37,0,344,344,0:00.38,0,394,394,0:05.68,-,-,-,TIMEOUT
big/fvs080.txtg,3,20,235,879,17,0:00.09,1,48,39,0:02.56,0,53,53,0:02.03,0,169,169,0:00.07,0,169,169,0:00.05,0,176,176,0:00.05,0,184,184,0:00.95,-,-,-,TIMEOUT
big/hep-th.txtg,3,100,0,761,761,0:00.15,0,732,732,0:02.88,0,975,975,0:03.22,0,1233,1233,0:00.25,0,1233,1233,0:00.11,0,1248,1248,0:00.06,0,1281,1281,0:01.00,-,-,-,TIMEOUT
big/hep-th.txtg,3,20,0,383,383,0:00.06,0,366,366,0:02.41,0,529,529,0:01.02,0,595,595,0:00.05,0,595,595,0:00.04,0,609,609,0:00.04,0,640,640,0:00.22,0,637,637,8:47.40
big/p2p-Gnutella04.txtg,3,100,3044,1819,3,0:01.02,7,2,2,1:41.61,0,467,467,1:24.13,0,944,944,0:00.39,0,944,944,0:00.24,0,962,962,0:00.15,0,969,969,0:16.15,-,-,-,TIMEOUT
big/p2p-Gnutella04.txtg,3,20,1241,469,4,0:00.19,0,2,2,1:24.14,0,256,256,0:46.49,0,390,390,0:00.11,0,390,390,0:00.08,0,415,415,0:00.08,0,434,434,0:01.88,-,-,-,TIMEOUT
big/planar10000.txtg,3,100,5,142,136,0:00.08,0,114,114,0:01.39,0,564,564,0:01.58,0,893,893,0:00.31,0,893,893,0:00.14,0,937,937,0:00.10,0,1106,1106,0:02.32,-,-,-,TIMEOUT
big/planar10000.txtg,3,20,0,78,78,0:00.05,0,64,64,0:01.35,0,315,315,0:01.11,0,455,455,0:00.07,0,455,455,0:00.06,0,467,467,0:00.05,0,505,505,0:00.45,-,-,-,TIMEOUT
big/planar12000.txtg,3,100,1356,2962,33,0:00.86,0,245,245,0:01.46,0,867,867,0:01.96,0,1411,1411,0:00.47,0,1411,1411,0:00.20,0,1445,1445,0:00.11,0,1659,1659,0:02.20,-,-,-,TIMEOUT
big/planar12000.txtg,3,20,0,161,161,0:00.06,0,139,139,0:00.91,0,438,438,0:00.91,0,649,649,0:00.11,0,649,649,0:00.06,0,665,665,0:00.05,0,711,711,0:00.42,-,-,-,TIMEOUT
big/planar15000.txtg,3,100,0,639,639,0:00.16,0,569,569,0:01.98,0,1432,1432,0:03.88,0,2095,2095,0:00.70,0,2095,2095,0:00.28,0,2113,2113,0:00.11,0,2409,2409,0:01.93,-,-,-,TIMEOUT
big/planar15000.txtg,3,20,0,308,308,0:00.07,0,277,277,0:01.12,0,742,742,0:01.09,0,943,943,0:00.14,0,943,943,0:00.08,0,962,962,0:00.05,0,1021,1021,0:00.39,-,-,-,TIMEOUT
big/planar7002.txtg,3,100,889,1103,5,0:00.12,0,21,21,0:01.59,0,187,187,0:01.37,0,300,300,0:00.14,0,300,300,0:00.08,0,339,339,0:00.08,0,423,423,0:02.61,-,-,-,TIMEOUT
big/planar7002.txtg,3,20,281,363,4,0:00.06,0,18,18,0:01.50,0,137,137,0:00.87,0,198,198,0:00.06,0,198,198,0:00.05,0,214,214,0:00.05,0,236,236,0:00.49,-,-,-,TIMEOUT
big/planar8500.txtg,3,100,1119,1773,11,0:00.45,0,55,55,0:01.50,0,340,340,0:01.57,0,570,570,0:00.22,0,570,570,0:00.11,0,610,610,0:00.09,0,733,733,0:02.50,-,-,-,TIMEOUT
big/planar8500.txtg,3,20,186,289,9,0:00.06,0,35,35,0:01.27,0,194,194,0:00.96,0,323,323,0:00.07,0,323,323,0:00.05,0,334,334,0:00.05,0,365,365,0:00.47,-,-,-,TIMEOUT
big/polblogs.txtg,3,100,440,600,21,0:00.08,0,1,1,0:48.55,26,14,8,0:43.87,0,40,40,0:00.15,0,40,40,0:00.06,0,41,41,0:00.10,0,42,42,0:01.59,0,42,42,6:15.11
big/polblogs.txtg,3,20,263,141,4,0:00.05,0,1,1,0:38.70,0,1,1,0:34.66,0,15,15,0:00.04,0,15,15,0:00.03,0,16,16,0:00.03,0,16,16,0:00.51,0,16,16,2:15.59
big/sb-12-0.txtg,3,100,1,32,30,0:00.05,0,20,20,0:02.34,0,121,121,0:00.79,0,216,216,0:00.06,0,216,216,0:00.05,0,209,209,0:00.04,0,252,252,0:01.50,0,248,248,9:32.64
big/sb-12-0.txtg,3,20,0,15,15,0:00.04,0,11,11,0:01.71,0,78,78,0:00.60,0,94,94,0:00.04,0,94,94,0:00.03,0,111,111,0:00.03,0,128,128,0:00.23,0,124,124,1:24.30
big/sb-12-1.txtg,3,100,134,98,1,0:00.05,0,18,18,0:03.16,0,125,125,0:00.91,0,232,232,0:00.06,0,232,232,0:00.05,0,221,221,0:00.05,0,259,259,0:01.50,-,-,-,NO
big/sb-12-1.txtg,3,20,-,-,-,NO,-,-,-,NO,-,-,-,NO,-,-,-,NO,-,-,-,NO,0,109,109,0:00.04,-,-,-,NO,0,122,122,1:24.05
big/as20000102.txtg,4,100,655,5347,274,0:00.84,8,75,67,0:07.59,9,84,17,0:06.66,0,89,89,0:01.13,0,89,89,0:00.52,0,99,99,0:00.56,5,1167,298,0:22.43,-,-,-,TIMEOUT
big/as20000102.txtg,4,20,300,1190,77,0:00.07,1,71,70,0:05.78,1,77,70,0:05.32,0,42,42,0:00.10,0,42,42,0:00.06,0,49,49,0:00.07,9,413,82,0:03.64,-,-,-,TIMEOUT
big/cl-12-0.txtg,4,100,1429,1624,4,0:01.22,0,9,9,3:39.72,0,75,75,3:24.75,0,134,134,0:00.07,0,134,134,0:00.05,0,137,137,0:00.05,0,151,151,0:10.80,-,-,-,TIMEOUT
big/cl-12-0.txtg,4,20,756,419,2,0:00.13,0,1,1,2:49.16,0,1,1,2:36.67,0,48,48,0:00.03,0,48,48,0:00.03,0,56,56,0:00.03,0,59,59,0:01.90,0,60,60,8:09.60
big/cl-12-1.txtg,4,100,1430,1636,4,0:01.25,0,1,1,3:54.20,0,1,1,3:34.24,0,128,128,0:00.07,0,128,128,0:00.05,0,140,140,0:00.05,0,155,155,0:11.10,-,-,-,TIMEOUT
big/cl-12-1.txtg,4,20,800,449,2,0:00.13,0,1,1,2:42.07,0,27,27,2:23.84,0,53,53,0:00.04,0,53,53,0:00.03,0,59,59,0:00.03,0,66,66,0:01.94,0,67,67,7:55.37
big/clh-12-0.txtg,4,100,1301,963,2,0:00.15,0,2,2,1:26.29,0,102,102,1:22.57,0,163,163,0:00.06,0,163,163,0:00.04,0,170,170,0:00.04,0,220,220,0:07.33,-,-,-,TIMEOUT
big/clh-12-0.txtg,4,20,693,396,1,0:00.06,0,7,7,1:10.88,0,70,70,1:03.38,0,104,104,0:00.04,0,104,104,0:00.02,0,109,109,0:00.03,0,123,123,0:01.29,0,121,121,8:13.42
big/clh-12-1.txtg,4,100,1289,957,2,0:00.16,0,2,2,1:32.97,0,79,79,1:25.41,0,160,160,0:00.06,0,160,160,0:00.04,0,165,165,0:00.04,0,204,204,0:07.17,-,-,-,TIMEOUT
big/clh-12-1.txtg,4,20,663,389,1,0:00.06,5,2,1,1:11.33,0,58,58,0:58.72,0,103,103,0:00.03,0,103,103,0:00.03,0,109,109,0:00.03,0,119,119,0:01.25,0,121,121,8:00.53
big/cond-mat.txtg,4,100,2015,2066,9,0:01.26,0,816,816,0:59.88,0,1123,1123,0:52.91,0,1318,1318,0:00.96,0,1318,1318,0:00.33,0,1361,1361,0:00.18,0,1411,1411,0:21.48,-,-,-,TIMEOUT
big/cond-mat.txtg,4,20,718,434,3,0:00.17,0,405,405,1:04.67,0,599,599,0:54.12,0,673,673,0:00.22,0,673,673,0:00.12,0,693,693,0:00.11,0,746,746,0:03.57,-,-,-,TIMEOUT
big/fvs001.txtg,4,100,792,4726,4,0:00.72,0,9,9,0:10.92,0,83,83,0:10.38,0,76,76,0:00.73,0,76,76,0:00.22,0,93,93,0:00.55,0,98,98,0:19.83,-,-,-,TIMEOUT
big/fvs001.txtg,4,20,384,972,4,0:00.08,0,9,9,0:07.51,0,25,25,0:06.51,0,35,35,0:00.06,0,35,35,0:00.04,0,33,33,0:00.10,0,59,59,0:02.75,-,-,-,TIMEOUT
big/fvs022.txtg,4,100,1015,9420,411,0:03.08,7,22,19,0:26.95,16,156,40,0:22.37,0,116,116,0:04.12,0,116,116,0:01.62,0,119,119,0:02.04,9,2550,427,1:25.23,-,-,-,TIMEOUT
big/fvs022.txtg,4,20,479,2032,95,0:00.22,11,7,3,0:21.42,8,65,11,0:15.98,0,59,59,0:00.29,0,59,59,0:00.15,0,63,63,0:00.19,9,602,98,0:17.16,-,-,-,TIMEOUT
big/fvs040.txtg,4,100,961,9046,397,0:05.45,15,15,10,0:21.62,10,219,58,0:18.50,0,110,110,0:03.33,0,110,110,0:01.48,0,118,118,0:01.70,9,2518,421,1:17.00,-,-,-,TIMEOUT
big/fvs040.txtg,4,20,441,1953,88,0:00.32,10,26,7,0:16.87,10,75,18,0:14.47,0,58,58,0:00.21,0,58,58,0:00.13,0,65,65,0:00.15,9,591,94,0:15.28,-,-,-,TIMEOUT
big/fvs045.txtg,4,100,0,360,360,0:00.46,0,483,483,0:10.57,0,677,677,0:04.40,0,892,892,0:00.41,0,892,892,0:00.25,0,950,950,0:00.11,0,1635,1635,0:01.15,-,-,-,TIMEOUT
big/fvs045.txtg,4,20,0,260,260,0:00.13,0,272,272,0:01.98,0,501,501,0:01.22,0,493,493,0:00.14,0,493,493,0:00.10,0,549,549,0:00.08,0,717,717,0:00.31,-,-,-,TIMEOUT
big/fvs074.txtg,4,100,960,9000,408,0:02.06,17,13,5,0:24.73,11,206,33,0:20.03,0,113,113,0:03.62,0,113,113,0:01.46,0,119,119,0:01.80,6,2202,424,1:14.36,-,-,-,TIMEOUT
big/fvs074.txtg,4,20,450,1962,90,0:00.16,6,4,2,0:18.62,6,72,15,0:15.92,0,53,53,0:00.24,0,53,53,0:00.13,0,59,59,0:00.16,8,579,93,0:14.94,-,-,-,TIMEOUT
big/fvs080.txtg,4,100,606,4429,225,0:01.50,1,231,228,0:05.84,1,241,228,0:05.24,0,84,84,0:00.80,0,84,84,0:00.39,0,88,88,0:00.40,4,870,236,0:15.30,-,-,-,TIMEOUT
big/fvs080.txtg,4,20,271,995,41,0:00.11,3,49,15,0:04.70,3,52,15,0:04.36,0,47,47,0:00.08,0,47,47,0:00.05,0,50,50,0:00.06,0,52,52,0:03.07,-,-,-,TIMEOUT
big/hep-th.txtg,4,100,930,1140,4,0:00.23,0,651,651,0:11.46,0,816,816,0:08.24,0,948,948,0:00.29,0,948,948,0:00.13,0,965,965,0:00.07,0,1010,1010,0:03.32,-,-,-,TIMEOUT
big/hep-th.txtg,4,20,0,311,311,0:00.05,0,308,308,0:13.16,0,422,422,0:06.74,0,467,467,0:00.06,0,467,467,0:00.05,0,481,481,0:00.04,0,506,506,0:00.66,-,-,-,TIMEOUT
big/p2p-Gnutella04.txtg,4,100,3790,6021,25,0:04.35,-,-,-,TIMEOUT,-,-,-,TIMEOUT,0,211,211,0:00.41,0,211,211,0:00.25,0,251,251,0:00.16,0,289,289,1:16.23,-,-,-,TIMEOUT
big/p2p-Gnutella04.txtg,4,20,2408,1339,6,0:00.52,-,-,-,TIMEOUT,-,-,-,TIMEOUT,0,117,117,0:00.12,0,117,117,0:00.08,0,138,138,0:00.09,0,151,151,0:11.57,-,-,-,TIMEOUT
big/planar10000.txtg,4,100,2176,3710,12,0:00.64,0,41,41,0:02.86,0,273,273,0:02.58,0,406,406,0:00.32,0,406,406,0:00.15,0,440,440,0:00.10,0,520,520,0:06.92,-,-,-,TIMEOUT
big/planar10000.txtg,4,20,614,870,5,0:00.10,0,24,24,0:02.18,0,133,133,0:01.92,0,202,202,0:00.08,0,202,202,0:00.06,0,226,226,0:00.05,0,263,263,0:01.34,-,-,-,TIMEOUT
big/planar12000.txtg,4,100,2329,4605,34,0:02.09,0,110,110,0:02.62,0,404,404,0:02.47,0,682,682,0:00.51,0,682,682,0:00.22,0,731,731,0:00.12,0,834,834,0:06.74,-,-,-,TIMEOUT
big/planar12000.txtg,4,20,628,1011,15,0:00.13,0,58,58,0:01.77,0,260,260,0:01.40,0,346,346,0:00.11,0,346,346,0:00.07,0,366,366,0:00.06,0,415,415,0:01.26,-,-,-,TIMEOUT
big/planar15000.txtg,4,100,1165,2710,31,0:00.95,0,331,331,0:02.30,0,825,825,0:02.67,0,1158,1158,0:00.76,0,1158,1158,0:00.31,0,1243,1243,0:00.12,0,1418,1418,0:05.75,-,-,-,TIMEOUT
big/planar15000.txtg,4,20,0,177,177,0:00.07,0,171,171,0:01.96,0,452,452,0:01.73,0,574,574,0:00.16,0,574,574,0:00.09,0,597,597,0:00.06,0,655,655,0:01.10,-,-,-,TIMEOUT
big/planar7002.txtg,4,100,2173,2656,4,0:00.34,0,10,10,0:02.53,0,53,53,0:02.15,0,109,109,0:00.14,0,109,109,0:00.09,0,129,129,0:00.08,0,166,166,0:07.39,-,-,-,TIMEOUT
big/planar7002.txtg,4,20,837,894,4,0:00.08,1,7,3,0:02.08,0,50,50,0:01.55,0,80,80,0:00.06,0,80,80,0:00.05,0,93,93,0:00.05,0,101,101,0:01.48,-,-,-,TIMEOUT
big/planar8500.txtg,4,100,2327,3423,9,0:01.11,0,13,13,0:02.47,0,118,118,0:02.42,0,208,208,0:00.23,0,208,208,0:00.12,0,238,238,0:00.09,0,302,302,0:07.25,-,-,-,TIMEOUT
big/planar8500.txtg,4,20,856,1064,5,0:00.13,0,11,11,0:02.09,0,61,61,0:01.50,0,122,122,0:00.08,0,122,122,0:00.05,0,142,142,0:00.06,0,157,157,0:01.41,-,-,-,TIMEOUT
big/polblogs.txtg,4,100,446,601,21,0:00.07,36,3,1,1:29.72,41,4,1,1:24.73,0,12,12,0:00.16,0,12,12,0:00.06,0,13,13,0:00.10,2,37,22,0:02.07,-,-,-,TIMEOUT
big/polblogs.txtg,4,20,295,138,4,0:00.06,0,1,1,1:11.25,0,1,1,1:07.69,0,6,6,0:00.04,0,6,6,0:00.03,0,6,6,0:00.04,0,6,6,0:00.81,0,6,6,7:18.52
big/sb-12-0.txtg,4,100,1901,1073,2,0:00.26,0,3,3,0:35.77,0,51,51,0:36.81,0,75,75,0:00.07,0,75,75,0:00.05,0,85,85,0:00.05,0,104,104,0:06.81,-,-,-,TIMEOUT
big/sb-12-0.txtg,4,20,885,336,1,0:00.08,0,1,1,0:40.81,0,30,30,0:27.27,0,30,30,0:00.04,0,30,30,0:00.03,0,38,38,0:00.04,0,50,50,0:01.02,0,50,50,5:17.42
big/sb-12-1.txtg,4,100,-,-,-,NO,-,-,-,NO,-,-,-,NO,-,-,-,NO,-,-,-,NO,-,-,-,NO,-,-,-,NO,-,-,-,NO
big/sb-12-1.txtg,4,20,-,-,-,NO,0,1,1,0:49.66,-,-,-,NO,-,-,-,NO,-,-,-,NO,-,-,-,NO,0,51,51,0:01.03,0,53,53,4:46.78
big/as20000102.txtg,5,100,656,5368,273,0:00.82,11,29,27,0:13.31,20,90,13,0:11.75,0,49,49,0:01.13,0,49,49,0:00.51,0,49,49,0:00.56,7,1317,294,0:33.66,-,-,-,TIMEOUT
big/as20000102.txtg,5,20,306,1193,77,0:00.08,1,71,70,0:09.98,1,72,70,0:08.30,0,21,21,0:00.10,0,21,21,0:00.07,0,25,25,0:00.07,9,370,77,0:06.69,-,-,-,TIMEOUT
big/cl-12-0.txtg,5,100,1458,1639,4,0:01.52,-,-,-,TIMEOUT,-,-,-,TIMEOUT,0,63,63,0:00.07,0,63,63,0:00.05,0,66,66,0:00.04,0,72,72,0:18.26,-,-,-,TIMEOUT
big/cl-12-0.txtg,5,20,893,426,2,0:00.19,0,1,1,8:48.09,0,1,1,7:48.85,0,21,21,0:00.04,0,21,21,0:00.03,0,22,22,0:00.04,0,26,26,0:03.92,-,-,-,TIMEOUT
big/cl-12-1.txtg,5,100,1452,1664,3,0:01.81,-,-,-,TIMEOUT,-,-,-,TIMEOUT,0,63,63,0:00.09,0,63,63,0:00.06,0,65,65,0:00.06,0,67,67,0:18.15,-,-,-,TIMEOUT
big/cl-12-1.txtg,5,20,917,452,2,0:00.18,0,1,1,8:57.20,0,1,1,8:05.76,0,23,23,0:00.04,0,23,23,0:00.03,0,25,25,0:00.03,0,27,27,0:03.98,-,-,-,TIMEOUT
big/clh-12-0.txtg,5,100,1339,988,2,0:00.18,0,1,1,5:05.29,10,2,1,4:49.18,0,86,86,0:00.05,0,86,86,0:00.05,0,87,87,0:00.04,0,105,105,0:14.85,-,-,-,TIMEOUT
big/clh-12-0.txtg,5,20,847,445,2,0:00.08,11,2,1,3:48.12,11,2,1,3:29.51,0,57,57,0:00.04,0,57,57,0:00.03,0,61,61,0:00.03,0,66,66,0:03.07,-,-,-,TIMEOUT
big/clh-12-1.txtg,5,100,1303,971,2,0:00.17,12,2,1,4:45.55,9,2,1,4:31.86,0,82,82,0:00.06,0,82,82,0:00.04,0,80,80,0:00.04,0,98,98,0:14.50,-,-,-,TIMEOUT
big/clh-12-1.txtg,5,20,792,427,1,0:00.09,0,1,1,3:30.24,0,1,1,3:22.15,0,57,57,0:00.03,0,57,57,0:00.03,0,55,55,0:00.03,0,62,62,0:02.99,-,-,-,TIMEOUT
big/cond-mat.txtg,5,100,3524,4495,9,0:03.91,0,757,757,5:52.40,0,973,973,5:45.80,0,1113,1113,0:00.96,0,1113,1113,0:00.34,0,1125,1125,0:00.18,0,1160,1160,1:04.38,-,-,-,TIMEOUT
big/cond-mat.txtg,5,20,1702,1193,5,0:00.35,0,369,369,4:55.19,0,497,497,4:13.43,0,560,560,0:00.23,0,560,560,0:00.12,0,568,568,0:00.11,0,602,602,0:11.22,-,-,-,TIMEOUT
big/fvs001.txtg,5,100,792,4974,4,0:00.90,12,14,5,0:34.00,12,16,5,0:34.07,0,76,76,0:00.73,0,76,76,0:00.22,0,93,93,0:00.55,0,84,84,0:26.23,-,-,-,TIMEOUT
big/fvs001.txtg,5,20,404,1040,4,0:00.09,12,5,5,0:22.23,5,25,17,0:21.54,0,20,20,0:00.07,0,20,20,0:00.05,0,23,23,0:00.10,0,26,26,0:04.88,-,-,-,TIMEOUT
big/fvs022.txtg,5,100,1020,9446,411,0:03.41,17,11,6,0:44.94,18,159,40,0:41.67,0,62,62,0:04.11,0,62,62,0:01.61,0,62,62,0:02.06,9,2452,423,2:00.17,-,-,-,TIMEOUT
big/fvs022.txtg,5,20,497,2041,96,0:00.24,4,8,3,0:33.55,11,65,13,0:30.03,0,31,31,0:00.28,0,31,31,0:00.16,0,32,32,0:00.19,9,546,94,0:27.79,-,-,-,TIMEOUT
big/fvs040.txtg,5,100,966,9062,398,0:05.98,30,16,5,0:36.80,30,77,15,0:31.98,0,59,59,0:03.35,0,59,59,0:01.49,0,63,63,0:01.71,9,2424,416,1:48.32,-,-,-,TIMEOUT
big/fvs040.txtg,5,20,458,1961,87,0:00.36,13,7,3,0:28.55,10,8,2,0:24.65,0,28,28,0:00.21,0,28,28,0:00.13,0,31,31,0:00.15,9,538,90,0:25.25,-,-,-,TIMEOUT
big/fvs045.txtg,5,100,0,198,198,0:00.35,0,282,282,0:08.27,0,382,382,0:02.94,0,501,501,0:00.42,0,501,501,0:00.25,0,547,547,0:00.11,0,962,962,0:01.96,-,-,-,TIMEOUT
big/fvs045.txtg,5,20,0,150,150,0:00.13,0,163,163,0:02.60,0,314,314,0:01.36,0,317,317,0:00.15,0,317,317,0:00.11,0,343,343,0:00.08,0,485,485,0:00.49,-,-,-,TIMEOUT
big/fvs074.txtg,5,100,967,9007,408,0:02.12,14,17,15,0:38.93,11,186,33,0:33.66,0,57,57,0:03.61,0,57,57,0:01.46,0,59,59,0:01.80,6,2111,415,1:46.82,-,-,-,TIMEOUT
big/fvs074.txtg,5,20,471,1962,90,0:00.18,4,11,3,0:30.33,27,42,8,0:26.69,0,28,28,0:00.24,0,28,28,0:00.13,0,30,30,0:00.16,8,533,90,0:24.68,-,-,-,TIMEOUT
big/fvs080.txtg,5,100,607,4435,225,0:01.54,6,30,15,0:09.67,8,77,18,0:09.06,0,48,48,0:00.80,0,48,48,0:00.38,0,48,48,0:00.40,4,805,235,0:23.68,-,-,-,TIMEOUT
big/fvs080.txtg,5,20,282,994,39,0:00.11,3,48,15,0:07.55,3,48,15,0:06.87,0,21,21,0:00.08,0,21,21,0:00.05,0,24,24,0:00.06,4,202,44,0:05.50,-,-,-,TIMEOUT
big/hep-th.txtg,5,100,1402,1997,8,0:00.52,0,614,614,0:37.37,0,733,733,0:35.08,0,822,822,0:00.29,0,822,822,0:00.13,0,838,838,0:00.07,0,856,856,0:09.04,-,-,-,TIMEOUT
big/hep-th.txtg,5,20,701,577,3,0:00.09,0,287,287,0:37.47,0,374,374,0:26.90,0,398,398,0:00.07,0,398,398,0:00.05,0,408,408,0:00.04,0,428,428,0:01.80,-,-,-,TIMEOUT
big/p2p-Gnutella04.txtg,5,100,3813,6092,25,0:03.21,-,-,-,TIMEOUT,-,-,-,TIMEOUT,0,67,67,0:00.42,0,67,67,0:00.25,0,74,74,0:00.17,0,89,89,2:38.90,-,-,-,TIMEOUT
big/p2p-Gnutella04.txtg,5,20,2730,1343,6,0:00.85,-,-,-,TIMEOUT,-,-,-,TIMEOUT,0,38,38,0:00.12,0,38,38,0:00.08,0,42,42,0:00.09,0,47,47,0:30.14,-,-,-,TIMEOUT
big/planar10000.txtg,5,100,2619,4423,10,0:01.09,0,18,18,0:03.87,0,121,121,0:03.44,0,256,256,0:00.32,0,256,256,0:00.15,0,278,278,0:00.10,0,324,324,0:15.64,-,-,-,TIMEOUT
big/planar10000.txtg,5,20,1042,1350,6,0:00.11,7,8,2,0:02.81,0,67,67,0:02.37,0,126,126,0:00.07,0,126,126,0:00.06,0,136,136,0:00.06,0,159,159,0:03.21,-,-,-,TIMEOUT
big/planar12000.txtg,5,100,2869,5534,33,0:02.92,0,58,58,0:03.40,0,184,184,0:03.45,0,461,461,0:00.51,0,461,461,0:00.21,0,495,495,0:00.11,0,541,541,0:15.20,-,-,-,TIMEOUT
big/planar12000.txtg,5,20,1039,1542,12,0:00.22,0,28,28,0:02.50,0,134,134,0:02.24,0,228,228,0:00.12,0,228,228,0:00.07,0,244,244,0:00.06,0,275,275,0:03.02,-,-,-,TIMEOUT
big/planar15000.txtg,5,100,2684,6000,28,0:04.50,0,231,231,0:03.16,0,551,551,0:03.37,0,863,863,0:00.76,0,863,863,0:00.31,0,917,917,0:00.12,0,1009,1009,0:13.85,-,-,-,TIMEOUT
big/planar15000.txtg,5,20,956,1701,11,0:00.33,0,112,112,0:02.81,0,281,281,0:02.48,0,425,425,0:00.16,0,425,425,0:00.09,0,447,447,0:00.07,0,489,489,0:02.68,-,-,-,TIMEOUT
big/planar7002.txtg,5,100,2324,2844,4,0:00.39,3,2,2,0:03.33,2,29,6,0:03.20,0,61,61,0:00.15,0,61,61,0:00.09,0,72,72,0:00.09,0,94,94,0:14.98,-,-,-,TIMEOUT
big/planar7002.txtg,5,20,945,958,4,0:00.08,7,7,2,0:02.41,0,17,17,0:02.25,0,42,42,0:00.06,0,42,42,0:00.05,0,53,53,0:00.05,0,59,59,0:03.30,-,-,-,TIMEOUT
big/planar8500.txtg,5,100,2598,3795,9,0:01.27,2,8,3,0:03.39,2,29,6,0:03.31,0,123,123,0:00.23,0,123,123,0:00.12,0,147,147,0:00.10,0,183,183,0:14.95,-,-,-,TIMEOUT
big/planar8500.txtg,5,20,1008,1183,4,0:00.14,2,5,2,0:02.71,1,52,21,0:02.28,0,73,73,0:00.08,0,73,73,0:00.06,0,82,82,0:00.06,0,94,94,0:03.20,-,-,-,TIMEOUT
big/polblogs.txtg,5,100,452,602,21,0:00.09,25,3,1,1:57.37,25,3,1,1:48.37,0,6,6,0:00.16,0,6,6,0:00.07,0,6,6,0:00.10,2,28,20,0:02.11,-,-,-,TIMEOUT
big/polblogs.txtg,5,20,320,138,4,0:00.06,0,1,1,1:33.16,0,1,1,1:27.60,0,3,3,0:00.04,0,3,3,0:00.03,0,3,3,0:00.04,1,8,5,0:00.87,-,-,-,NO
big/sb-12-0.txtg,5,100,2003,1136,2,0:00.20,4,2,1,9:27.68,4,2,1,8:58.74,0,35,35,0:00.08,0,35,35,0:00.05,0,40,40,0:00.05,0,44,44,0:17.95,-,-,-,TIMEOUT
big/sb-12-0.txtg,5,20,1113,336,1,0:00.12,0,1,1,6:50.88,0,8,8,6:19.66,0,13,13,0:00.04,0,13,13,0:00.04,0,15,15,0:00.04,0,20,20,0:03.30,-,-,-,NO
big/sb-12-1.txtg,5,100,1995,1162,2,0:00.23,0,1,1,9:43.77,0,1,1,9:13.98,0,35,35,0:00.07,0,35,35,0:00.05,0,36,36,0:00.05,0,44,44,0:17.93,-,-,-,NO
big/sb-12-1.txtg,5,20,1082,326,1,0:00.12,2,2,1,8:19.19,-,-,-,NO,-,-,-,NO,-,-,-,NO,-,-,-,NO,-,-,-,NO,-,-,-,NO
